<svg width="191" height="47" viewBox="0 0 191 47" fill="none" xmlns="http://www.w3.org/2000/svg">
<path d="M8.27532 35.3325C5.36484 35.3325 3.258 34.5807 1.9548 33.077C0.6516 31.5732 0 29.7473 0 27.5991C0 25.7517 0.41268 24.248 1.23804 23.088C2.10684 21.928 3.21456 20.9828 4.5612 20.2524C5.90784 19.4791 7.31964 18.8561 8.7966 18.3835C10.317 17.8679 11.7505 17.3739 13.0972 16.9013C14.4872 16.3857 15.595 15.8057 16.4203 15.1612C17.2891 14.5168 17.7235 13.7005 17.7235 12.7123V7.68563C17.7235 6.56859 17.528 5.58043 17.1371 4.72117C16.7896 3.81894 16.2248 3.13152 15.4429 2.65893C14.7044 2.18633 13.727 1.95003 12.5107 1.95003C11.6419 1.95003 10.7731 2.07892 9.90432 2.3367C9.03552 2.55152 8.31876 2.93819 7.75404 3.49671C8.97036 3.92634 9.90432 4.59228 10.5559 5.49451C11.251 6.35377 11.5985 7.34193 11.5985 8.45897C11.5985 9.91973 11.0772 11.0797 10.0346 11.939C9.03552 12.7983 7.84092 13.2279 6.45084 13.2279C4.887 13.2279 3.6924 12.7553 2.86704 11.8101C2.08512 10.822 1.69416 9.64046 1.69416 8.26564C1.69416 7.0197 1.99824 5.98858 2.6064 5.17228C3.258 4.35598 4.14852 3.58264 5.27796 2.85226C6.49428 2.16485 7.94952 1.62781 9.64368 1.24114C11.3813 0.854469 13.2492 0.661133 15.2474 0.661133C17.2457 0.661133 19.0484 0.87595 20.6557 1.30558C22.263 1.69225 23.6096 2.42263 24.6956 3.49671C25.6948 4.48487 26.3464 5.70932 26.6504 7.17008C26.9545 8.58786 27.1066 10.3923 27.1066 12.5835V30.1125C27.1066 31.1436 27.2152 31.874 27.4324 32.3036C27.6496 32.7332 28.0188 32.9481 28.5401 32.9481C28.9745 32.9481 29.3872 32.8407 29.7781 32.6258C30.1691 32.411 30.5383 32.1532 30.8858 31.8525L31.5374 32.9481C30.6252 33.7214 29.5609 34.3229 28.3446 34.7525C27.1717 35.1392 25.8468 35.3325 24.3698 35.3325C21.7634 35.3325 20.0258 34.817 19.157 33.7858C18.3317 32.7118 17.8973 31.4873 17.8538 30.1125C16.7678 31.874 15.4212 33.1844 13.8139 34.0436C12.2501 34.9029 10.4039 35.3325 8.27532 35.3325ZM13.2926 31.208C14.118 31.208 14.8782 31.0147 15.5732 30.628C16.3117 30.2414 17.0285 29.554 17.7235 28.5658V15.3546C17.2022 16.2139 16.4638 16.9442 15.5081 17.5457C14.5958 18.1042 13.6402 18.7272 12.641 19.4146C11.6854 20.0591 10.8817 20.8969 10.2301 21.928C9.57852 22.9591 9.25272 24.3339 9.25272 26.0524C9.25272 27.8999 9.64368 29.2317 10.4256 30.048C11.2075 30.8214 12.1632 31.208 13.2926 31.208Z" fill="#B99F78"/>
<path d="M57.0527 0.661133C58.8771 0.661133 60.3541 0.897431 61.4835 1.37003C62.613 1.79966 63.5252 2.40115 64.2203 3.17449C64.9153 3.99079 65.4149 5.06487 65.7189 6.39673C66.023 7.68563 66.1751 9.40416 66.1751 11.5523V28.888C66.1751 30.6925 66.4574 31.9169 67.0221 32.5614C67.5869 33.2058 68.5643 33.5281 69.9543 33.5281V34.8814C69.1724 34.8384 67.9778 34.7955 66.3705 34.7525C64.8067 34.6666 63.2646 34.6236 61.7442 34.6236C60.1803 34.6236 58.6382 34.6666 57.1178 34.7525C55.5974 34.7955 54.4463 34.8384 53.6643 34.8814V33.5281C54.8372 33.5281 55.6409 33.2058 56.0753 32.5614C56.5531 31.9169 56.792 30.6925 56.792 28.888V8.84564C56.792 7.77156 56.7051 6.84785 56.5314 6.07451C56.3576 5.25821 56.0101 4.63524 55.4888 4.20561C55.011 3.73301 54.2725 3.49671 53.2734 3.49671C52.1439 3.49671 51.1014 3.81894 50.1457 4.46338C49.19 5.10783 48.4081 6.01007 47.7999 7.17008C47.2352 8.28712 46.9529 9.55454 46.9529 10.9723V28.888C46.9529 30.6925 47.1918 31.9169 47.6696 32.5614C48.1475 33.2058 48.9511 33.5281 50.0805 33.5281V34.8814C49.3855 34.8384 48.2995 34.7955 46.8225 34.7525C45.389 34.6666 43.9121 34.6236 42.3917 34.6236C40.7409 34.6236 39.0468 34.6666 37.3092 34.7525C35.5716 34.7955 34.2684 34.8384 33.3996 34.8814V33.5281C34.92 33.5281 35.9843 33.2058 36.5924 32.5614C37.244 31.9169 37.5698 30.6925 37.5698 28.888V8.58786C37.5698 6.65451 37.2657 5.23672 36.6576 4.33449C36.0929 3.3893 35.0069 2.91671 33.3996 2.91671V1.56336C34.7897 1.69225 36.1363 1.7567 37.4395 1.7567C39.264 1.7567 40.9581 1.69225 42.522 1.56336C44.1293 1.39151 45.6062 1.15521 46.9529 0.85447V6.65451C47.9954 4.50635 49.4072 2.98115 51.1883 2.07892C52.9693 1.13373 54.9241 0.661133 57.0527 0.661133ZM76.6658 0.661133C78.4903 0.661133 79.9673 0.897431 81.0967 1.37003C82.2262 1.79966 83.1384 2.40115 83.8334 3.17449C84.5285 3.99079 85.028 5.06487 85.3321 6.39673C85.6362 7.68563 85.7882 9.40416 85.7882 11.5523V28.888C85.7882 30.6925 86.0923 31.9169 86.7005 32.5614C87.3521 33.2058 88.4381 33.5281 89.9585 33.5281V34.8814C89.1331 34.8384 87.8951 34.7955 86.2443 34.7525C84.5936 34.6666 82.9646 34.6236 81.3573 34.6236C79.7935 34.6236 78.2514 34.6666 76.731 34.7525C75.2106 34.7955 74.0594 34.8384 73.2775 34.8814V33.5281C74.4504 33.5281 75.254 33.2058 75.6884 32.5614C76.1663 31.9169 76.4052 30.6925 76.4052 28.888V8.84564C76.4052 7.77156 76.2966 6.84785 76.0794 6.07451C75.9056 5.25821 75.5364 4.63524 74.9717 4.20561C74.4504 3.73301 73.625 3.49671 72.4956 3.49671C70.8014 3.49671 69.3245 4.24857 68.0647 5.75229C66.8049 7.21304 66.1534 9.0175 66.1099 11.1657L65.7841 7.23452C66.957 4.65672 68.4991 2.91671 70.4105 2.01448C72.3653 1.11225 74.4504 0.661133 76.6658 0.661133Z" fill="#B99F78"/>
<path d="M100.988 35.3325C98.0779 35.3325 95.971 34.5807 94.6678 33.077C93.3646 31.5732 92.713 29.7473 92.713 27.5991C92.713 25.7517 93.1257 24.248 93.951 23.088C94.8198 21.928 95.9276 20.9828 97.2742 20.2524C98.6208 19.4791 100.033 18.8561 101.51 18.3835C103.03 17.8679 104.464 17.3739 105.81 16.9013C107.2 16.3857 108.308 15.8057 109.133 15.1612C110.002 14.5168 110.437 13.7005 110.437 12.7123V7.68563C110.437 6.56859 110.241 5.58043 109.85 4.72117C109.503 3.81894 108.938 3.13152 108.156 2.65893C107.417 2.18633 106.44 1.95003 105.224 1.95003C104.355 1.95003 103.486 2.07892 102.617 2.3367C101.749 2.55152 101.032 2.93819 100.467 3.49671C101.683 3.92634 102.617 4.59228 103.269 5.49451C103.964 6.35377 104.311 7.34193 104.311 8.45897C104.311 9.91973 103.79 11.0797 102.748 11.939C101.749 12.7983 100.554 13.2279 99.1638 13.2279C97.6 13.2279 96.4054 12.7553 95.58 11.8101C94.7981 10.822 94.4072 9.64046 94.4072 8.26564C94.4072 7.0197 94.7112 5.98858 95.3194 5.17228C95.971 4.35598 96.8615 3.58264 97.991 2.85226C99.2073 2.16485 100.663 1.62781 102.357 1.24114C104.094 0.854469 105.962 0.661133 107.96 0.661133C109.959 0.661133 111.761 0.87595 113.369 1.30558C114.976 1.69225 116.323 2.42263 117.409 3.49671C118.408 4.48487 119.059 5.70932 119.363 7.17008C119.668 8.58786 119.82 10.3923 119.82 12.5835V30.1125C119.82 31.1436 119.928 31.874 120.145 32.3036C120.363 32.7332 120.732 32.9481 121.253 32.9481C121.687 32.9481 122.1 32.8407 122.491 32.6258C122.882 32.411 123.251 32.1532 123.599 31.8525L124.25 32.9481C123.338 33.7214 122.274 34.3229 121.058 34.7525C119.885 35.1392 118.56 35.3325 117.083 35.3325C114.476 35.3325 112.739 34.817 111.87 33.7858C111.045 32.7118 110.61 31.4873 110.567 30.1125C109.481 31.874 108.134 33.1844 106.527 34.0436C104.963 34.9029 103.117 35.3325 100.988 35.3325ZM106.006 31.208C106.831 31.208 107.591 31.0147 108.286 30.628C109.025 30.2414 109.741 29.554 110.437 28.5658V15.3546C109.915 16.2139 109.177 16.9442 108.221 17.5457C107.309 18.1042 106.353 18.7272 105.354 19.4146C104.398 20.0591 103.595 20.8969 102.943 21.928C102.292 22.9591 101.966 24.3339 101.966 26.0524C101.966 27.8999 102.357 29.2317 103.139 30.048C103.921 30.8214 104.876 31.208 106.006 31.208Z" fill="#B99F78"/>
<path d="M157.403 1.56336V2.85226C156.578 3.06708 155.796 3.58264 155.057 4.39894C154.319 5.17228 153.602 6.50415 152.907 8.39453L143.72 33.9147L141.309 38.4259L127.104 6.52562C126.365 4.85005 125.627 3.84042 124.888 3.49671C124.193 3.11004 123.585 2.91671 123.064 2.91671V1.56336C124.497 1.69225 125.974 1.79966 127.495 1.88559C129.059 1.92855 130.557 1.95003 131.991 1.95003C133.772 1.95003 135.401 1.90707 136.878 1.82114C138.355 1.73521 139.745 1.64929 141.048 1.56336V2.91671C140.179 2.91671 139.354 2.98115 138.572 3.11004C137.833 3.19597 137.312 3.49671 137.008 4.01227C136.747 4.48487 136.878 5.32265 137.399 6.52562L145.609 26.1169L145.023 26.5036L149.845 13.1635C151.061 9.68343 151.256 7.14859 150.431 5.55895C149.606 3.92635 148.15 3.02411 146.065 2.85226V1.56336C147.064 1.60633 148.15 1.64929 149.323 1.69225C150.496 1.73522 151.517 1.7567 152.386 1.7567C153.255 1.7567 154.167 1.73522 155.123 1.69225C156.078 1.64929 156.838 1.60633 157.403 1.56336ZM143.72 33.9147L141.243 40.8103C140.418 43.0015 139.462 44.5267 138.376 45.3859C137.768 45.9015 136.986 46.2882 136.031 46.5459C135.075 46.8467 133.967 46.9971 132.707 46.9971C131.665 46.9971 130.579 46.8252 129.449 46.4815C128.363 46.1378 127.451 45.5793 126.713 44.8059C125.974 44.0326 125.605 43.0444 125.605 41.8415C125.605 40.5096 126.083 39.4355 127.039 38.6192C127.994 37.8459 129.254 37.4592 130.818 37.4592C132.251 37.4592 133.424 37.8029 134.336 38.4903C135.249 39.1777 135.705 40.1874 135.705 41.5192C135.705 42.3785 135.423 43.1948 134.858 43.9681C134.336 44.7415 133.533 45.3215 132.447 45.7082C132.664 45.7511 132.925 45.7726 133.229 45.7726C133.533 45.7726 133.772 45.7726 133.946 45.7726C135.249 45.7726 136.4 45.3645 137.399 44.5482C138.398 43.7319 139.223 42.443 139.875 40.6815L142.156 34.0436L143.72 33.9147Z" fill="#B99F78"/>
<path d="M167.23 35.3325C164.32 35.3325 162.213 34.5807 160.91 33.077C159.606 31.5732 158.955 29.7473 158.955 27.5991C158.955 25.7517 159.367 24.248 160.193 23.088C161.062 21.928 162.169 20.9828 163.516 20.2524C164.863 19.4791 166.274 18.8561 167.751 18.3835C169.272 17.8679 170.705 17.3739 172.052 16.9013C173.442 16.3857 174.55 15.8057 175.375 15.1612C176.244 14.5168 176.678 13.7005 176.678 12.7123V7.68563C176.678 6.56859 176.483 5.58043 176.092 4.72117C175.744 3.81894 175.18 3.13152 174.398 2.65893C173.659 2.18633 172.682 1.95003 171.465 1.95003C170.597 1.95003 169.728 2.07892 168.859 2.3367C167.99 2.55152 167.274 2.93819 166.709 3.49671C167.925 3.92634 168.859 4.59228 169.511 5.49451C170.206 6.35377 170.553 7.34193 170.553 8.45897C170.553 9.91973 170.032 11.0797 168.989 11.939C167.99 12.7983 166.796 13.2279 165.406 13.2279C163.842 13.2279 162.647 12.7553 161.822 11.8101C161.04 10.822 160.649 9.64046 160.649 8.26564C160.649 7.0197 160.953 5.98858 161.561 5.17228C162.213 4.35598 163.103 3.58264 164.233 2.85226C165.449 2.16485 166.904 1.62781 168.598 1.24114C170.336 0.854469 172.204 0.661133 174.202 0.661133C176.2 0.661133 178.003 0.87595 179.61 1.30558C181.218 1.69225 182.564 2.42263 183.65 3.49671C184.65 4.48487 185.301 5.70932 185.605 7.17008C185.909 8.58786 186.061 10.3923 186.061 12.5835V30.1125C186.061 31.1436 186.17 31.874 186.387 32.3036C186.604 32.7332 186.974 32.9481 187.495 32.9481C187.929 32.9481 188.342 32.8407 188.733 32.6258C189.124 32.411 189.493 32.1532 189.841 31.8525L190.492 32.9481C189.58 33.7214 188.516 34.3229 187.299 34.7525C186.126 35.1392 184.802 35.3325 183.325 35.3325C180.718 35.3325 178.981 34.817 178.112 33.7858C177.286 32.7118 176.852 31.4873 176.809 30.1125C175.723 31.874 174.376 33.1844 172.769 34.0436C171.205 34.9029 169.359 35.3325 167.23 35.3325ZM172.247 31.208C173.073 31.208 173.833 31.0147 174.528 30.628C175.266 30.2414 175.983 29.554 176.678 28.5658V15.3546C176.157 16.2139 175.419 16.9442 174.463 17.5457C173.551 18.1042 172.595 18.7272 171.596 19.4146C170.64 20.0591 169.836 20.8969 169.185 21.928C168.533 22.9591 168.207 24.3339 168.207 26.0524C168.207 27.8999 168.598 29.2317 169.38 30.048C170.162 30.8214 171.118 31.208 172.247 31.208Z" fill="#B99F78"/>
</svg>
