<svg width="125" height="110" viewBox="0 0 125 110" fill="none" xmlns="http://www.w3.org/2000/svg">
<rect width="125" height="110" fill="#20313B"/>
<path d="M92.4363 47.2184H82.1867C78.7811 34.687 67.5482 26 54.6069 26C38.832 26 26 38.9631 26 54.8965C26 70.8299 38.832 83.793 54.6069 83.793C68.568 83.793 80.5531 73.4706 82.8205 59.6479H92.4381C95.8309 59.6479 98.59 56.8597 98.59 53.4323C98.5882 50.0067 95.8291 47.2184 92.4363 47.2184ZM92.4363 57.7648H81.2033L81.094 58.5807C79.2983 71.8807 67.9106 81.9099 54.6069 81.9099C39.8627 81.9099 27.8667 69.7918 27.8667 54.8983C27.8667 40.003 39.8627 27.8849 54.6069 27.8849C66.9435 27.8849 77.6174 36.326 80.5659 48.415L80.7607 49.2108L81.5675 49.127C81.7114 49.1125 81.8589 49.1052 82.0046 49.1052H92.4381C94.802 49.1052 96.7251 51.0484 96.7251 53.4359C96.7233 55.8216 94.8001 57.7648 92.4363 57.7648Z" fill="white"/>
<path d="M54.9913 31.9917C42.4671 31.9917 32.3159 42.2467 32.3159 54.8983C32.3159 67.55 42.4689 77.805 54.9913 77.805C67.5155 77.805 77.6667 67.55 77.6667 54.8983C77.6667 42.2467 67.5155 31.9917 54.9913 31.9917ZM52.9789 36.5027C53.6691 36.6976 54.17 37.5699 54.7491 38.1399C54.7509 38.1399 54.7545 38.1399 54.7545 38.1399C54.7545 38.1399 54.7582 38.1399 54.76 38.1399C55.3391 37.5699 55.84 36.6976 56.5302 36.5027C57.2933 36.2878 58.2621 38.2146 57.7649 39.2691C57.0183 40.8553 56.0458 42.3468 54.9968 44.1116C54.9294 44.2682 54.862 44.4248 54.7946 44.5887C54.78 44.565 54.7673 44.5432 54.7527 44.5195C54.7382 44.5432 54.7254 44.565 54.7108 44.5887C54.6435 44.4248 54.5761 44.2682 54.5087 44.1116C53.4597 42.3468 52.4872 40.8535 51.7405 39.2691C51.247 38.2146 52.2158 36.2878 52.9789 36.5027ZM51.9099 42.0536C52.9771 43.7309 54.0042 45.3427 54.9603 46.8451C55.8691 45.2534 56.8653 43.5124 58.0144 41.5018C59.8046 45.8034 55.4739 47.5863 54.9567 50.7479C52.0374 47.8759 50.646 44.0678 51.9099 42.0536ZM50.0723 46.0948C51.7551 48.9741 53.4105 51.8042 54.8347 54.2373C56.186 51.5292 57.734 48.4223 59.2929 45.2971C60.7098 47.4352 60.4985 51.5401 58.8212 53.2629C57.5719 54.5469 56.2169 55.727 54.9895 56.8798C53.5599 55.6177 52.061 54.3429 50.6187 53.008C48.772 51.2924 48.5316 48.3858 50.0723 46.0948ZM51.4273 56.1386C53.0572 57.3096 53.8822 58.9832 54.1845 60.9556C53.1446 58.6864 51.5293 57.0965 48.9578 56.5192C50.4274 58.0981 51.899 59.6771 53.3686 61.256C48.8722 59.1981 45.7179 56.1313 45.7288 50.7479C46.7614 53.5379 49.3001 54.6088 51.4273 56.1386ZM42.6037 54.6798C43.1555 55.5139 43.5707 56.1167 43.9605 56.7359C45.4138 59.0506 47.5373 60.269 50.1452 60.8882C52.8642 61.5347 54.3502 63.2976 54.6016 66.1951C53.7347 63.9805 52.112 63.385 50.3983 62.8787C48.7884 62.4034 47.2003 61.8497 45.4939 61.2943C46.4537 63.13 48.0709 63.9186 49.8465 64.536C50.9082 64.9057 52.0738 65.2062 52.9297 65.88C53.7857 66.552 54.312 67.652 54.7564 68.7775C53.2921 66.5356 50.9938 66.0421 48.7101 65.4429C43.6199 64.1062 40.9792 59.566 42.6037 54.6798ZM54.2446 74.3503C52.7476 73.3887 51.3417 72.2377 49.7554 71.471C47.8778 70.564 45.7853 70.1142 43.8949 69.2291C40.218 67.5063 38.0581 63.0262 39.0961 59.0761C39.1344 58.9341 39.291 58.3677 39.5496 58.0654C40.4511 62.9497 43.813 64.8947 48.0563 65.8946C50.3036 66.4245 52.347 67.4316 53.8003 69.3384C54.2282 69.8993 54.4959 70.5859 54.5142 71.4728C54.17 71.1031 53.884 70.6369 53.4706 70.3783C52.0009 69.4622 50.6733 68.0417 48.9778 67.7795C46.8616 67.4517 44.2209 66.3845 42.3524 64.9858C43.079 66.2406 43.1264 66.47 44.6616 67.9634C45.9109 69.1781 47.3351 69.0525 49.0124 69.5588C51.4673 70.3 53.762 71.1851 54.7618 73.884C54.8347 74.0789 55.0933 74.2027 55.1097 74.7054C54.8183 74.5906 54.5032 74.516 54.2446 74.3503ZM57.581 55.7816C59.5388 53.8566 61.9919 52.3414 62.6147 49.2891C63.4779 54.851 60.7043 58.5279 56.3845 61.3817C57.6539 59.5132 58.9232 57.6428 60.1926 55.7743C57.6265 56.7869 56.2115 58.69 55.4958 61.2032C55.4958 59.118 56.084 57.2549 57.581 55.7816ZM59.903 61.6858C57.4226 62.3997 57.6156 62.7203 56.1805 64.7527C56.1459 64.7345 56.1095 64.7181 56.0713 64.7053C56.5393 63.7602 56.9964 62.8059 57.6648 62.0391C58.6573 60.9009 60.0724 60.1506 61.2142 59.1307C62.999 57.5372 64.7091 55.8599 66.37 54.2937C67.286 56.1404 66.6869 59.7791 64.4996 61.7387C62.877 63.1919 60.8791 64.2245 59.027 65.4101C57.9926 66.073 56.9381 66.6886 55.9165 67.3005C55.9693 66.8561 56.0858 66.4336 56.3845 66.0566C57.4626 64.953 58.0818 63.7164 59.2401 63.2302C60.5149 62.6948 61.9901 61.2815 62.9498 60.2854C62.8241 60.1743 61.2944 61.2105 59.903 61.6858ZM70.9338 62.8496C70.2855 65.636 68.366 67.4061 65.9657 68.6391C64.5106 69.3857 62.9316 69.8957 61.3872 70.4566C59.7628 71.0466 58.1146 71.5711 56.0494 72.2668C59.1199 68.9195 64.0571 69.4987 66.716 65.9674C63.0445 67.5081 59.5224 68.9869 56.0403 70.4493C56.3116 69.3202 57.2805 68.3768 58.5553 67.7339C60.178 66.9162 61.8571 66.2114 63.4871 65.4065C66.7961 63.7747 69.1072 61.3635 69.3749 56.9417C71.1942 58.9213 71.4055 60.8244 70.9338 62.8496Z" fill="white"/>
</svg>
