<svg width="567" height="427" viewBox="0 0 567 427" fill="none" xmlns="http://www.w3.org/2000/svg">
<g filter="url(#filter0_d)">
<rect x="12" y="27" width="447" height="302" fill="white"/>
<path d="M61.688 54.416C61.688 53.328 61.9333 52.352 62.424 51.488C62.9147 50.6133 63.5813 49.9307 64.424 49.44C65.2773 48.9493 66.2213 48.704 67.256 48.704C68.472 48.704 69.5333 48.9973 70.44 49.584C71.3467 50.1707 72.008 51.0027 72.424 52.08H70.68C70.3707 51.408 69.9227 50.8907 69.336 50.528C68.76 50.1653 68.0667 49.984 67.256 49.984C66.4773 49.984 65.7787 50.1653 65.16 50.528C64.5413 50.8907 64.056 51.408 63.704 52.08C63.352 52.7413 63.176 53.52 63.176 54.416C63.176 55.3013 63.352 56.08 63.704 56.752C64.056 57.4133 64.5413 57.9253 65.16 58.288C65.7787 58.6507 66.4773 58.832 67.256 58.832C68.0667 58.832 68.76 58.656 69.336 58.304C69.9227 57.9413 70.3707 57.424 70.68 56.752H72.424C72.008 57.8187 71.3467 58.6453 70.44 59.232C69.5333 59.808 68.472 60.096 67.256 60.096C66.2213 60.096 65.2773 59.856 64.424 59.376C63.5813 58.8853 62.9147 58.208 62.424 57.344C61.9333 56.48 61.688 55.504 61.688 54.416ZM78.4154 60.144C77.594 60.144 76.8474 59.9573 76.1754 59.584C75.514 59.2107 74.9914 58.6827 74.6074 58C74.234 57.3067 74.0474 56.5067 74.0474 55.6C74.0474 54.704 74.2394 53.9147 74.6234 53.232C75.018 52.5387 75.5514 52.0107 76.2234 51.648C76.8954 51.2747 77.6474 51.088 78.4794 51.088C79.3114 51.088 80.0634 51.2747 80.7354 51.648C81.4074 52.0107 81.9354 52.5333 82.3194 53.216C82.714 53.8987 82.9114 54.6933 82.9114 55.6C82.9114 56.5067 82.7087 57.3067 82.3034 58C81.9087 58.6827 81.37 59.2107 80.6874 59.584C80.0047 59.9573 79.2474 60.144 78.4154 60.144ZM78.4154 58.864C78.938 58.864 79.4287 58.7413 79.8874 58.496C80.346 58.2507 80.714 57.8827 80.9914 57.392C81.2794 56.9013 81.4234 56.304 81.4234 55.6C81.4234 54.896 81.2847 54.2987 81.0074 53.808C80.73 53.3173 80.3674 52.9547 79.9194 52.72C79.4714 52.4747 78.986 52.352 78.4634 52.352C77.93 52.352 77.4394 52.4747 76.9914 52.72C76.554 52.9547 76.202 53.3173 75.9354 53.808C75.6687 54.2987 75.5354 54.896 75.5354 55.6C75.5354 56.3147 75.6634 56.9173 75.9194 57.408C76.186 57.8987 76.538 58.2667 76.9754 58.512C77.4127 58.7467 77.8927 58.864 78.4154 58.864ZM88.3938 52.432H86.5538V60H85.0978V52.432H83.9618V51.232H85.0978V50.608C85.0978 49.6267 85.3484 48.912 85.8498 48.464C86.3618 48.0053 87.1778 47.776 88.2977 47.776V48.992C87.6578 48.992 87.2044 49.12 86.9378 49.376C86.6818 49.6213 86.5538 50.032 86.5538 50.608V51.232H88.3938V52.432ZM93.6594 52.432H91.8194V60H90.3634V52.432H89.2274V51.232H90.3634V50.608C90.3634 49.6267 90.614 48.912 91.1154 48.464C91.6274 48.0053 92.4434 47.776 93.5634 47.776V48.992C92.9234 48.992 92.47 49.12 92.2034 49.376C91.9474 49.6213 91.8194 50.032 91.8194 50.608V51.232H93.6594V52.432ZM103.357 55.28C103.357 55.5573 103.341 55.8507 103.309 56.16H96.301C96.3543 57.024 96.6477 57.7013 97.181 58.192C97.725 58.672 98.381 58.912 99.149 58.912C99.7783 58.912 100.301 58.768 100.717 58.48C101.144 58.1813 101.442 57.7867 101.613 57.296H103.181C102.946 58.1387 102.477 58.8267 101.773 59.36C101.069 59.8827 100.194 60.144 99.149 60.144C98.317 60.144 97.5703 59.9573 96.909 59.584C96.2583 59.2107 95.7463 58.6827 95.373 58C94.9997 57.3067 94.813 56.5067 94.813 55.6C94.813 54.6933 94.9943 53.8987 95.357 53.216C95.7197 52.5333 96.2263 52.0107 96.877 51.648C97.5383 51.2747 98.2957 51.088 99.149 51.088C99.981 51.088 100.717 51.2693 101.357 51.632C101.997 51.9947 102.488 52.496 102.829 53.136C103.181 53.7653 103.357 54.48 103.357 55.28ZM101.853 54.976C101.853 54.4213 101.73 53.9467 101.485 53.552C101.24 53.1467 100.904 52.8427 100.477 52.64C100.061 52.4267 99.597 52.32 99.085 52.32C98.349 52.32 97.7197 52.5547 97.197 53.024C96.685 53.4933 96.3917 54.144 96.317 54.976H101.853ZM113.279 55.28C113.279 55.5573 113.263 55.8507 113.231 56.16H106.223C106.276 57.024 106.57 57.7013 107.103 58.192C107.647 58.672 108.303 58.912 109.071 58.912C109.7 58.912 110.223 58.768 110.639 58.48C111.066 58.1813 111.364 57.7867 111.535 57.296H113.103C112.868 58.1387 112.399 58.8267 111.695 59.36C110.991 59.8827 110.116 60.144 109.071 60.144C108.239 60.144 107.492 59.9573 106.831 59.584C106.18 59.2107 105.668 58.6827 105.295 58C104.922 57.3067 104.735 56.5067 104.735 55.6C104.735 54.6933 104.916 53.8987 105.279 53.216C105.642 52.5333 106.148 52.0107 106.799 51.648C107.46 51.2747 108.218 51.088 109.071 51.088C109.903 51.088 110.639 51.2693 111.279 51.632C111.919 51.9947 112.41 52.496 112.751 53.136C113.103 53.7653 113.279 54.48 113.279 55.28ZM111.775 54.976C111.775 54.4213 111.652 53.9467 111.407 53.552C111.162 53.1467 110.826 52.8427 110.399 52.64C109.983 52.4267 109.519 52.32 109.007 52.32C108.271 52.32 107.642 52.5547 107.119 53.024C106.607 53.4933 106.314 54.144 106.239 54.976H111.775ZM61.688 102.416C61.688 101.328 61.9333 100.352 62.424 99.488C62.9147 98.6133 63.5813 97.9307 64.424 97.44C65.2773 96.9493 66.2213 96.704 67.256 96.704C68.472 96.704 69.5333 96.9973 70.44 97.584C71.3467 98.1707 72.008 99.0027 72.424 100.08H70.68C70.3707 99.408 69.9227 98.8907 69.336 98.528C68.76 98.1653 68.0667 97.984 67.256 97.984C66.4773 97.984 65.7787 98.1653 65.16 98.528C64.5413 98.8907 64.056 99.408 63.704 100.08C63.352 100.741 63.176 101.52 63.176 102.416C63.176 103.301 63.352 104.08 63.704 104.752C64.056 105.413 64.5413 105.925 65.16 106.288C65.7787 106.651 66.4773 106.832 67.256 106.832C68.0667 106.832 68.76 106.656 69.336 106.304C69.9227 105.941 70.3707 105.424 70.68 104.752H72.424C72.008 105.819 71.3467 106.645 70.44 107.232C69.5333 107.808 68.472 108.096 67.256 108.096C66.2213 108.096 65.2773 107.856 64.424 107.376C63.5813 106.885 62.9147 106.208 62.424 105.344C61.9333 104.48 61.688 103.504 61.688 102.416ZM78.4154 108.144C77.594 108.144 76.8474 107.957 76.1754 107.584C75.514 107.211 74.9914 106.683 74.6074 106C74.234 105.307 74.0474 104.507 74.0474 103.6C74.0474 102.704 74.2394 101.915 74.6234 101.232C75.018 100.539 75.5514 100.011 76.2234 99.648C76.8954 99.2747 77.6474 99.088 78.4794 99.088C79.3114 99.088 80.0634 99.2747 80.7354 99.648C81.4074 100.011 81.9354 100.533 82.3194 101.216C82.714 101.899 82.9114 102.693 82.9114 103.6C82.9114 104.507 82.7087 105.307 82.3034 106C81.9087 106.683 81.37 107.211 80.6874 107.584C80.0047 107.957 79.2474 108.144 78.4154 108.144ZM78.4154 106.864C78.938 106.864 79.4287 106.741 79.8874 106.496C80.346 106.251 80.714 105.883 80.9914 105.392C81.2794 104.901 81.4234 104.304 81.4234 103.6C81.4234 102.896 81.2847 102.299 81.0074 101.808C80.73 101.317 80.3674 100.955 79.9194 100.72C79.4714 100.475 78.986 100.352 78.4634 100.352C77.93 100.352 77.4394 100.475 76.9914 100.72C76.554 100.955 76.202 101.317 75.9354 101.808C75.6687 102.299 75.5354 102.896 75.5354 103.6C75.5354 104.315 75.6634 104.917 75.9194 105.408C76.186 105.899 76.538 106.267 76.9754 106.512C77.4127 106.747 77.8927 106.864 78.4154 106.864ZM88.3938 100.432H86.5538V108H85.0978V100.432H83.9618V99.232H85.0978V98.608C85.0978 97.6267 85.3484 96.912 85.8498 96.464C86.3618 96.0053 87.1778 95.776 88.2977 95.776V96.992C87.6578 96.992 87.2044 97.12 86.9378 97.376C86.6818 97.6213 86.5538 98.032 86.5538 98.608V99.232H88.3938V100.432ZM93.6594 100.432H91.8194V108H90.3634V100.432H89.2274V99.232H90.3634V98.608C90.3634 97.6267 90.614 96.912 91.1154 96.464C91.6274 96.0053 92.4434 95.776 93.5634 95.776V96.992C92.9234 96.992 92.47 97.12 92.2034 97.376C91.9474 97.6213 91.8194 98.032 91.8194 98.608V99.232H93.6594V100.432ZM103.357 103.28C103.357 103.557 103.341 103.851 103.309 104.16H96.301C96.3543 105.024 96.6477 105.701 97.181 106.192C97.725 106.672 98.381 106.912 99.149 106.912C99.7783 106.912 100.301 106.768 100.717 106.48C101.144 106.181 101.442 105.787 101.613 105.296H103.181C102.946 106.139 102.477 106.827 101.773 107.36C101.069 107.883 100.194 108.144 99.149 108.144C98.317 108.144 97.5703 107.957 96.909 107.584C96.2583 107.211 95.7463 106.683 95.373 106C94.9997 105.307 94.813 104.507 94.813 103.6C94.813 102.693 94.9943 101.899 95.357 101.216C95.7197 100.533 96.2263 100.011 96.877 99.648C97.5383 99.2747 98.2957 99.088 99.149 99.088C99.981 99.088 100.717 99.2693 101.357 99.632C101.997 99.9947 102.488 100.496 102.829 101.136C103.181 101.765 103.357 102.48 103.357 103.28ZM101.853 102.976C101.853 102.421 101.73 101.947 101.485 101.552C101.24 101.147 100.904 100.843 100.477 100.64C100.061 100.427 99.597 100.32 99.085 100.32C98.349 100.32 97.7197 100.555 97.197 101.024C96.685 101.493 96.3917 102.144 96.317 102.976H101.853ZM113.279 103.28C113.279 103.557 113.263 103.851 113.231 104.16H106.223C106.276 105.024 106.57 105.701 107.103 106.192C107.647 106.672 108.303 106.912 109.071 106.912C109.7 106.912 110.223 106.768 110.639 106.48C111.066 106.181 111.364 105.787 111.535 105.296H113.103C112.868 106.139 112.399 106.827 111.695 107.36C110.991 107.883 110.116 108.144 109.071 108.144C108.239 108.144 107.492 107.957 106.831 107.584C106.18 107.211 105.668 106.683 105.295 106C104.922 105.307 104.735 104.507 104.735 103.6C104.735 102.693 104.916 101.899 105.279 101.216C105.642 100.533 106.148 100.011 106.799 99.648C107.46 99.2747 108.218 99.088 109.071 99.088C109.903 99.088 110.639 99.2693 111.279 99.632C111.919 99.9947 112.41 100.496 112.751 101.136C113.103 101.765 113.279 102.48 113.279 103.28ZM111.775 102.976C111.775 102.421 111.652 101.947 111.407 101.552C111.162 101.147 110.826 100.843 110.399 100.64C109.983 100.427 109.519 100.32 109.007 100.32C108.271 100.32 107.642 100.555 107.119 101.024C106.607 101.493 106.314 102.144 106.239 102.976H111.775ZM125.77 96.848V98.032H120.922V101.792H124.858V102.976H120.922V108H119.466V96.848H125.77ZM128.985 100.656C129.241 100.155 129.604 99.7653 130.073 99.488C130.553 99.2107 131.134 99.072 131.817 99.072V100.576H131.433C129.801 100.576 128.985 101.461 128.985 103.232V108H127.529V99.232H128.985V100.656ZM132.954 103.584C132.954 102.688 133.135 101.904 133.498 101.232C133.86 100.549 134.356 100.021 134.986 99.648C135.626 99.2747 136.335 99.088 137.114 99.088C137.882 99.088 138.548 99.2533 139.114 99.584C139.679 99.9147 140.1 100.331 140.378 100.832V99.232H141.85V108H140.378V106.368C140.09 106.88 139.658 107.307 139.082 107.648C138.516 107.979 137.855 108.144 137.098 108.144C136.319 108.144 135.615 107.952 134.986 107.568C134.356 107.184 133.86 106.645 133.498 105.952C133.135 105.259 132.954 104.469 132.954 103.584ZM140.378 103.6C140.378 102.939 140.244 102.363 139.978 101.872C139.711 101.381 139.348 101.008 138.89 100.752C138.442 100.485 137.946 100.352 137.402 100.352C136.858 100.352 136.362 100.48 135.914 100.736C135.466 100.992 135.108 101.365 134.842 101.856C134.575 102.347 134.442 102.923 134.442 103.584C134.442 104.256 134.575 104.843 134.842 105.344C135.108 105.835 135.466 106.213 135.914 106.48C136.362 106.736 136.858 106.864 137.402 106.864C137.946 106.864 138.442 106.736 138.89 106.48C139.348 106.213 139.711 105.835 139.978 105.344C140.244 104.843 140.378 104.261 140.378 103.6ZM145.766 100.848C146.054 100.347 146.481 99.9307 147.046 99.6C147.622 99.2587 148.289 99.088 149.046 99.088C149.825 99.088 150.529 99.2747 151.158 99.648C151.798 100.021 152.299 100.549 152.662 101.232C153.025 101.904 153.206 102.688 153.206 103.584C153.206 104.469 153.025 105.259 152.662 105.952C152.299 106.645 151.798 107.184 151.158 107.568C150.529 107.952 149.825 108.144 149.046 108.144C148.299 108.144 147.638 107.979 147.062 107.648C146.497 107.307 146.065 106.885 145.766 106.384V112.16H144.31V99.232H145.766V100.848ZM151.718 103.584C151.718 102.923 151.585 102.347 151.318 101.856C151.051 101.365 150.689 100.992 150.23 100.736C149.782 100.48 149.286 100.352 148.742 100.352C148.209 100.352 147.713 100.485 147.254 100.752C146.806 101.008 146.443 101.387 146.166 101.888C145.899 102.379 145.766 102.949 145.766 103.6C145.766 104.261 145.899 104.843 146.166 105.344C146.443 105.835 146.806 106.213 147.254 106.48C147.713 106.736 148.209 106.864 148.742 106.864C149.286 106.864 149.782 106.736 150.23 106.48C150.689 106.213 151.051 105.835 151.318 105.344C151.585 104.843 151.718 104.256 151.718 103.584ZM156.579 100.848C156.867 100.347 157.293 99.9307 157.859 99.6C158.435 99.2587 159.101 99.088 159.859 99.088C160.637 99.088 161.341 99.2747 161.971 99.648C162.611 100.021 163.112 100.549 163.475 101.232C163.837 101.904 164.019 102.688 164.019 103.584C164.019 104.469 163.837 105.259 163.475 105.952C163.112 106.645 162.611 107.184 161.971 107.568C161.341 107.952 160.637 108.144 159.859 108.144C159.112 108.144 158.451 107.979 157.875 107.648C157.309 107.307 156.877 106.885 156.579 106.384V112.16H155.123V99.232H156.579V100.848ZM162.531 103.584C162.531 102.923 162.397 102.347 162.131 101.856C161.864 101.365 161.501 100.992 161.043 100.736C160.595 100.48 160.099 100.352 159.555 100.352C159.021 100.352 158.525 100.485 158.067 100.752C157.619 101.008 157.256 101.387 156.979 101.888C156.712 102.379 156.579 102.949 156.579 103.6C156.579 104.261 156.712 104.843 156.979 105.344C157.256 105.835 157.619 106.213 158.067 106.48C158.525 106.736 159.021 106.864 159.555 106.864C160.099 106.864 160.595 106.736 161.043 106.48C161.501 106.213 161.864 105.835 162.131 105.344C162.397 104.843 162.531 104.256 162.531 103.584ZM173.711 99.232V108H172.255V106.704C171.978 107.152 171.588 107.504 171.087 107.76C170.596 108.005 170.052 108.128 169.455 108.128C168.772 108.128 168.159 107.989 167.615 107.712C167.071 107.424 166.639 106.997 166.319 106.432C166.01 105.867 165.855 105.179 165.855 104.368V99.232H167.295V104.176C167.295 105.04 167.514 105.707 167.951 106.176C168.388 106.635 168.986 106.864 169.743 106.864C170.522 106.864 171.135 106.624 171.583 106.144C172.031 105.664 172.255 104.965 172.255 104.048V99.232H173.711ZM175.626 103.6C175.626 102.693 175.807 101.904 176.17 101.232C176.532 100.549 177.034 100.021 177.674 99.648C178.324 99.2747 179.066 99.088 179.898 99.088C180.975 99.088 181.86 99.3493 182.554 99.872C183.258 100.395 183.722 101.12 183.946 102.048H182.378C182.228 101.515 181.935 101.093 181.498 100.784C181.071 100.475 180.538 100.32 179.898 100.32C179.066 100.32 178.394 100.608 177.882 101.184C177.37 101.749 177.114 102.555 177.114 103.6C177.114 104.656 177.37 105.472 177.882 106.048C178.394 106.624 179.066 106.912 179.898 106.912C180.538 106.912 181.071 106.763 181.498 106.464C181.924 106.165 182.218 105.739 182.378 105.184H183.946C183.711 106.08 183.242 106.8 182.538 107.344C181.834 107.877 180.954 108.144 179.898 108.144C179.066 108.144 178.324 107.957 177.674 107.584C177.034 107.211 176.532 106.683 176.17 106C175.807 105.317 175.626 104.517 175.626 103.6ZM185.344 103.6C185.344 102.693 185.526 101.904 185.888 101.232C186.251 100.549 186.752 100.021 187.392 99.648C188.043 99.2747 188.784 99.088 189.616 99.088C190.694 99.088 191.579 99.3493 192.272 99.872C192.976 100.395 193.44 101.12 193.664 102.048H192.096C191.947 101.515 191.654 101.093 191.216 100.784C190.79 100.475 190.256 100.32 189.616 100.32C188.784 100.32 188.112 100.608 187.6 101.184C187.088 101.749 186.832 102.555 186.832 103.6C186.832 104.656 187.088 105.472 187.6 106.048C188.112 106.624 188.784 106.912 189.616 106.912C190.256 106.912 190.79 106.763 191.216 106.464C191.643 106.165 191.936 105.739 192.096 105.184H193.664C193.43 106.08 192.96 106.8 192.256 107.344C191.552 107.877 190.672 108.144 189.616 108.144C188.784 108.144 188.043 107.957 187.392 107.584C186.752 107.211 186.251 106.683 185.888 106C185.526 105.317 185.344 104.517 185.344 103.6ZM196.359 97.808C196.082 97.808 195.847 97.712 195.655 97.52C195.463 97.328 195.367 97.0933 195.367 96.816C195.367 96.5387 195.463 96.304 195.655 96.112C195.847 95.92 196.082 95.824 196.359 95.824C196.626 95.824 196.85 95.92 197.031 96.112C197.223 96.304 197.319 96.5387 197.319 96.816C197.319 97.0933 197.223 97.328 197.031 97.52C196.85 97.712 196.626 97.808 196.359 97.808ZM197.063 99.232V108H195.607V99.232H197.063ZM203.817 99.072C204.883 99.072 205.747 99.3973 206.409 100.048C207.07 100.688 207.401 101.616 207.401 102.832V108H205.961V103.04C205.961 102.165 205.742 101.499 205.305 101.04C204.867 100.571 204.27 100.336 203.513 100.336C202.745 100.336 202.131 100.576 201.673 101.056C201.225 101.536 201.001 102.235 201.001 103.152V108H199.545V99.232H201.001V100.48C201.289 100.032 201.678 99.6853 202.169 99.44C202.67 99.1947 203.219 99.072 203.817 99.072ZM213.603 108.144C212.782 108.144 212.035 107.957 211.363 107.584C210.702 107.211 210.179 106.683 209.795 106C209.422 105.307 209.235 104.507 209.235 103.6C209.235 102.704 209.427 101.915 209.811 101.232C210.206 100.539 210.739 100.011 211.411 99.648C212.083 99.2747 212.835 99.088 213.667 99.088C214.499 99.088 215.251 99.2747 215.923 99.648C216.595 100.011 217.123 100.533 217.507 101.216C217.902 101.899 218.099 102.693 218.099 103.6C218.099 104.507 217.896 105.307 217.491 106C217.096 106.683 216.558 107.211 215.875 107.584C215.192 107.957 214.435 108.144 213.603 108.144ZM213.603 106.864C214.126 106.864 214.616 106.741 215.075 106.496C215.534 106.251 215.902 105.883 216.179 105.392C216.467 104.901 216.611 104.304 216.611 103.6C216.611 102.896 216.472 102.299 216.195 101.808C215.918 101.317 215.555 100.955 215.107 100.72C214.659 100.475 214.174 100.352 213.651 100.352C213.118 100.352 212.627 100.475 212.179 100.72C211.742 100.955 211.39 101.317 211.123 101.808C210.856 102.299 210.723 102.896 210.723 103.6C210.723 104.315 210.851 104.917 211.107 105.408C211.374 105.899 211.726 106.267 212.163 106.512C212.6 106.747 213.08 106.864 213.603 106.864ZM61.688 150.416C61.688 149.328 61.9333 148.352 62.424 147.488C62.9147 146.613 63.5813 145.931 64.424 145.44C65.2773 144.949 66.2213 144.704 67.256 144.704C68.472 144.704 69.5333 144.997 70.44 145.584C71.3467 146.171 72.008 147.003 72.424 148.08H70.68C70.3707 147.408 69.9227 146.891 69.336 146.528C68.76 146.165 68.0667 145.984 67.256 145.984C66.4773 145.984 65.7787 146.165 65.16 146.528C64.5413 146.891 64.056 147.408 63.704 148.08C63.352 148.741 63.176 149.52 63.176 150.416C63.176 151.301 63.352 152.08 63.704 152.752C64.056 153.413 64.5413 153.925 65.16 154.288C65.7787 154.651 66.4773 154.832 67.256 154.832C68.0667 154.832 68.76 154.656 69.336 154.304C69.9227 153.941 70.3707 153.424 70.68 152.752H72.424C72.008 153.819 71.3467 154.645 70.44 155.232C69.5333 155.808 68.472 156.096 67.256 156.096C66.2213 156.096 65.2773 155.856 64.424 155.376C63.5813 154.885 62.9147 154.208 62.424 153.344C61.9333 152.48 61.688 151.504 61.688 150.416ZM74.0474 151.584C74.0474 150.688 74.2287 149.904 74.5914 149.232C74.954 148.549 75.45 148.021 76.0794 147.648C76.7194 147.275 77.4287 147.088 78.2074 147.088C78.9754 147.088 79.642 147.253 80.2074 147.584C80.7727 147.915 81.194 148.331 81.4714 148.832V147.232H82.9434V156H81.4714V154.368C81.1834 154.88 80.7514 155.307 80.1754 155.648C79.61 155.979 78.9487 156.144 78.1914 156.144C77.4127 156.144 76.7087 155.952 76.0794 155.568C75.45 155.184 74.954 154.645 74.5914 153.952C74.2287 153.259 74.0474 152.469 74.0474 151.584ZM81.4714 151.6C81.4714 150.939 81.338 150.363 81.0714 149.872C80.8047 149.381 80.442 149.008 79.9834 148.752C79.5354 148.485 79.0394 148.352 78.4954 148.352C77.9514 148.352 77.4554 148.48 77.0074 148.736C76.5594 148.992 76.202 149.365 75.9354 149.856C75.6687 150.347 75.5354 150.923 75.5354 151.584C75.5354 152.256 75.6687 152.843 75.9354 153.344C76.202 153.835 76.5594 154.213 77.0074 154.48C77.4554 154.736 77.9514 154.864 78.4954 154.864C79.0394 154.864 79.5354 154.736 79.9834 154.48C80.442 154.213 80.8047 153.835 81.0714 153.344C81.338 152.843 81.4714 152.261 81.4714 151.6ZM90.2999 156L86.8599 152.128V156H85.4039V144.16H86.8599V151.12L90.2359 147.232H92.2679L88.1399 151.6L92.2839 156H90.2999ZM101.638 151.28C101.638 151.557 101.622 151.851 101.59 152.16H94.5823C94.6356 153.024 94.9289 153.701 95.4623 154.192C96.0063 154.672 96.6623 154.912 97.4303 154.912C98.0596 154.912 98.5823 154.768 98.9983 154.48C99.4249 154.181 99.7236 153.787 99.8943 153.296H101.462C101.228 154.139 100.758 154.827 100.054 155.36C99.3503 155.883 98.4756 156.144 97.4303 156.144C96.5983 156.144 95.8516 155.957 95.1903 155.584C94.5396 155.211 94.0276 154.683 93.6543 154C93.2809 153.307 93.0943 152.507 93.0943 151.6C93.0943 150.693 93.2756 149.899 93.6383 149.216C94.0009 148.533 94.5076 148.011 95.1583 147.648C95.8196 147.275 96.5769 147.088 97.4303 147.088C98.2623 147.088 98.9983 147.269 99.6383 147.632C100.278 147.995 100.769 148.496 101.11 149.136C101.462 149.765 101.638 150.48 101.638 151.28ZM100.134 150.976C100.134 150.421 100.012 149.947 99.7663 149.552C99.5209 149.147 99.1849 148.843 98.7583 148.64C98.3423 148.427 97.8783 148.32 97.3663 148.32C96.6303 148.32 96.0009 148.555 95.4783 149.024C94.9663 149.493 94.6729 150.144 94.5983 150.976H100.134ZM61.688 198.416C61.688 197.328 61.9333 196.352 62.424 195.488C62.9147 194.613 63.5813 193.931 64.424 193.44C65.2773 192.949 66.2213 192.704 67.256 192.704C68.472 192.704 69.5333 192.997 70.44 193.584C71.3467 194.171 72.008 195.003 72.424 196.08H70.68C70.3707 195.408 69.9227 194.891 69.336 194.528C68.76 194.165 68.0667 193.984 67.256 193.984C66.4773 193.984 65.7787 194.165 65.16 194.528C64.5413 194.891 64.056 195.408 63.704 196.08C63.352 196.741 63.176 197.52 63.176 198.416C63.176 199.301 63.352 200.08 63.704 200.752C64.056 201.413 64.5413 201.925 65.16 202.288C65.7787 202.651 66.4773 202.832 67.256 202.832C68.0667 202.832 68.76 202.656 69.336 202.304C69.9227 201.941 70.3707 201.424 70.68 200.752H72.424C72.008 201.819 71.3467 202.645 70.44 203.232C69.5333 203.808 68.472 204.096 67.256 204.096C66.2213 204.096 65.2773 203.856 64.424 203.376C63.5813 202.885 62.9147 202.208 62.424 201.344C61.9333 200.48 61.688 199.504 61.688 198.416ZM76.0474 196.656C76.3034 196.155 76.666 195.765 77.1354 195.488C77.6154 195.211 78.1967 195.072 78.8794 195.072V196.576H78.4954C76.8634 196.576 76.0474 197.461 76.0474 199.232V204H74.5914V195.232H76.0474V196.656ZM88.5601 199.28C88.5601 199.557 88.5441 199.851 88.5121 200.16H81.5041C81.5575 201.024 81.8508 201.701 82.3841 202.192C82.9281 202.672 83.5841 202.912 84.3521 202.912C84.9815 202.912 85.5041 202.768 85.9201 202.48C86.3468 202.181 86.6455 201.787 86.8161 201.296H88.3841C88.1495 202.139 87.6801 202.827 86.9761 203.36C86.2721 203.883 85.3975 204.144 84.3521 204.144C83.5201 204.144 82.7735 203.957 82.1121 203.584C81.4615 203.211 80.9495 202.683 80.5761 202C80.2028 201.307 80.0161 200.507 80.0161 199.6C80.0161 198.693 80.1975 197.899 80.5601 197.216C80.9228 196.533 81.4295 196.011 82.0801 195.648C82.7415 195.275 83.4988 195.088 84.3521 195.088C85.1841 195.088 85.9201 195.269 86.5601 195.632C87.2001 195.995 87.6908 196.496 88.0321 197.136C88.3841 197.765 88.5601 198.48 88.5601 199.28ZM87.0561 198.976C87.0561 198.421 86.9335 197.947 86.6881 197.552C86.4428 197.147 86.1068 196.843 85.6801 196.64C85.2641 196.427 84.8001 196.32 84.2881 196.32C83.5521 196.32 82.9228 196.555 82.4001 197.024C81.8881 197.493 81.5948 198.144 81.5201 198.976H87.0561ZM101.026 195.072C101.709 195.072 102.317 195.216 102.85 195.504C103.383 195.781 103.805 196.203 104.114 196.768C104.423 197.333 104.578 198.021 104.578 198.832V204H103.138V199.04C103.138 198.165 102.919 197.499 102.482 197.04C102.055 196.571 101.474 196.336 100.738 196.336C99.9807 196.336 99.378 196.581 98.93 197.072C98.482 197.552 98.258 198.251 98.258 199.168V204H96.818V199.04C96.818 198.165 96.5993 197.499 96.162 197.04C95.7353 196.571 95.154 196.336 94.418 196.336C93.6607 196.336 93.058 196.581 92.61 197.072C92.162 197.552 91.938 198.251 91.938 199.168V204H90.482V195.232H91.938V196.496C92.226 196.037 92.61 195.685 93.09 195.44C93.5807 195.195 94.1193 195.072 94.706 195.072C95.442 195.072 96.0927 195.237 96.658 195.568C97.2233 195.899 97.6447 196.384 97.922 197.024C98.1673 196.405 98.5727 195.925 99.138 195.584C99.7033 195.243 100.333 195.072 101.026 195.072ZM114.966 199.28C114.966 199.557 114.95 199.851 114.918 200.16H107.91C107.964 201.024 108.257 201.701 108.79 202.192C109.334 202.672 109.99 202.912 110.758 202.912C111.388 202.912 111.91 202.768 112.326 202.48C112.753 202.181 113.052 201.787 113.222 201.296H114.79C114.556 202.139 114.086 202.827 113.382 203.36C112.678 203.883 111.804 204.144 110.758 204.144C109.926 204.144 109.18 203.957 108.518 203.584C107.868 203.211 107.356 202.683 106.982 202C106.609 201.307 106.422 200.507 106.422 199.6C106.422 198.693 106.604 197.899 106.966 197.216C107.329 196.533 107.836 196.011 108.486 195.648C109.148 195.275 109.905 195.088 110.758 195.088C111.59 195.088 112.326 195.269 112.966 195.632C113.606 195.995 114.097 196.496 114.438 197.136C114.79 197.765 114.966 198.48 114.966 199.28ZM113.462 198.976C113.462 198.421 113.34 197.947 113.094 197.552C112.849 197.147 112.513 196.843 112.086 196.64C111.67 196.427 111.206 196.32 110.694 196.32C109.958 196.32 109.329 196.555 108.806 197.024C108.294 197.493 108.001 198.144 107.926 198.976H113.462ZM127.458 192.848V194.032H122.61V197.792H126.546V198.976H122.61V204H121.154V192.848H127.458ZM130.672 196.656C130.928 196.155 131.291 195.765 131.76 195.488C132.24 195.211 132.822 195.072 133.504 195.072V196.576H133.12C131.488 196.576 130.672 197.461 130.672 199.232V204H129.216V195.232H130.672V196.656ZM134.641 199.584C134.641 198.688 134.822 197.904 135.185 197.232C135.548 196.549 136.044 196.021 136.673 195.648C137.313 195.275 138.022 195.088 138.801 195.088C139.569 195.088 140.236 195.253 140.801 195.584C141.366 195.915 141.788 196.331 142.065 196.832V195.232H143.537V204H142.065V202.368C141.777 202.88 141.345 203.307 140.769 203.648C140.204 203.979 139.542 204.144 138.785 204.144C138.006 204.144 137.302 203.952 136.673 203.568C136.044 203.184 135.548 202.645 135.185 201.952C134.822 201.259 134.641 200.469 134.641 199.584ZM142.065 199.6C142.065 198.939 141.932 198.363 141.665 197.872C141.398 197.381 141.036 197.008 140.577 196.752C140.129 196.485 139.633 196.352 139.089 196.352C138.545 196.352 138.049 196.48 137.601 196.736C137.153 196.992 136.796 197.365 136.529 197.856C136.262 198.347 136.129 198.923 136.129 199.584C136.129 200.256 136.262 200.843 136.529 201.344C136.796 201.835 137.153 202.213 137.601 202.48C138.049 202.736 138.545 202.864 139.089 202.864C139.633 202.864 140.129 202.736 140.577 202.48C141.036 202.213 141.398 201.835 141.665 201.344C141.932 200.843 142.065 200.261 142.065 199.6ZM147.454 196.848C147.742 196.347 148.168 195.931 148.734 195.6C149.31 195.259 149.976 195.088 150.734 195.088C151.512 195.088 152.216 195.275 152.846 195.648C153.486 196.021 153.987 196.549 154.35 197.232C154.712 197.904 154.894 198.688 154.894 199.584C154.894 200.469 154.712 201.259 154.35 201.952C153.987 202.645 153.486 203.184 152.846 203.568C152.216 203.952 151.512 204.144 150.734 204.144C149.987 204.144 149.326 203.979 148.75 203.648C148.184 203.307 147.752 202.885 147.454 202.384V208.16H145.998V195.232H147.454V196.848ZM153.406 199.584C153.406 198.923 153.272 198.347 153.006 197.856C152.739 197.365 152.376 196.992 151.918 196.736C151.47 196.48 150.974 196.352 150.43 196.352C149.896 196.352 149.4 196.485 148.942 196.752C148.494 197.008 148.131 197.387 147.854 197.888C147.587 198.379 147.454 198.949 147.454 199.6C147.454 200.261 147.587 200.843 147.854 201.344C148.131 201.835 148.494 202.213 148.942 202.48C149.4 202.736 149.896 202.864 150.43 202.864C150.974 202.864 151.47 202.736 151.918 202.48C152.376 202.213 152.739 201.835 153.006 201.344C153.272 200.843 153.406 200.256 153.406 199.584ZM158.266 196.848C158.554 196.347 158.981 195.931 159.546 195.6C160.122 195.259 160.789 195.088 161.546 195.088C162.325 195.088 163.029 195.275 163.658 195.648C164.298 196.021 164.799 196.549 165.162 197.232C165.525 197.904 165.706 198.688 165.706 199.584C165.706 200.469 165.525 201.259 165.162 201.952C164.799 202.645 164.298 203.184 163.658 203.568C163.029 203.952 162.325 204.144 161.546 204.144C160.799 204.144 160.138 203.979 159.562 203.648C158.997 203.307 158.565 202.885 158.266 202.384V208.16H156.81V195.232H158.266V196.848ZM164.218 199.584C164.218 198.923 164.085 198.347 163.818 197.856C163.551 197.365 163.189 196.992 162.73 196.736C162.282 196.48 161.786 196.352 161.242 196.352C160.709 196.352 160.213 196.485 159.754 196.752C159.306 197.008 158.943 197.387 158.666 197.888C158.399 198.379 158.266 198.949 158.266 199.6C158.266 200.261 158.399 200.843 158.666 201.344C158.943 201.835 159.306 202.213 159.754 202.48C160.213 202.736 160.709 202.864 161.242 202.864C161.786 202.864 162.282 202.736 162.73 202.48C163.189 202.213 163.551 201.835 163.818 201.344C164.085 200.843 164.218 200.256 164.218 199.584ZM175.399 195.232V204H173.943V202.704C173.665 203.152 173.276 203.504 172.775 203.76C172.284 204.005 171.74 204.128 171.143 204.128C170.46 204.128 169.847 203.989 169.303 203.712C168.759 203.424 168.327 202.997 168.007 202.432C167.697 201.867 167.543 201.179 167.543 200.368V195.232H168.983V200.176C168.983 201.04 169.201 201.707 169.639 202.176C170.076 202.635 170.673 202.864 171.431 202.864C172.209 202.864 172.823 202.624 173.271 202.144C173.719 201.664 173.943 200.965 173.943 200.048V195.232H175.399ZM177.313 199.6C177.313 198.693 177.494 197.904 177.857 197.232C178.22 196.549 178.721 196.021 179.361 195.648C180.012 195.275 180.753 195.088 181.585 195.088C182.662 195.088 183.548 195.349 184.241 195.872C184.945 196.395 185.409 197.12 185.633 198.048H184.065C183.916 197.515 183.622 197.093 183.185 196.784C182.758 196.475 182.225 196.32 181.585 196.32C180.753 196.32 180.081 196.608 179.569 197.184C179.057 197.749 178.801 198.555 178.801 199.6C178.801 200.656 179.057 201.472 179.569 202.048C180.081 202.624 180.753 202.912 181.585 202.912C182.225 202.912 182.758 202.763 183.185 202.464C183.612 202.165 183.905 201.739 184.065 201.184H185.633C185.398 202.08 184.929 202.8 184.225 203.344C183.521 203.877 182.641 204.144 181.585 204.144C180.753 204.144 180.012 203.957 179.361 203.584C178.721 203.211 178.22 202.683 177.857 202C177.494 201.317 177.313 200.517 177.313 199.6ZM187.032 199.6C187.032 198.693 187.213 197.904 187.576 197.232C187.938 196.549 188.44 196.021 189.08 195.648C189.73 195.275 190.472 195.088 191.304 195.088C192.381 195.088 193.266 195.349 193.96 195.872C194.664 196.395 195.128 197.12 195.352 198.048H193.784C193.634 197.515 193.341 197.093 192.904 196.784C192.477 196.475 191.944 196.32 191.304 196.32C190.472 196.32 189.8 196.608 189.288 197.184C188.776 197.749 188.52 198.555 188.52 199.6C188.52 200.656 188.776 201.472 189.288 202.048C189.8 202.624 190.472 202.912 191.304 202.912C191.944 202.912 192.477 202.763 192.904 202.464C193.33 202.165 193.624 201.739 193.784 201.184H195.352C195.117 202.08 194.648 202.8 193.944 203.344C193.24 203.877 192.36 204.144 191.304 204.144C190.472 204.144 189.73 203.957 189.08 203.584C188.44 203.211 187.938 202.683 187.576 202C187.213 201.317 187.032 200.517 187.032 199.6ZM198.047 193.808C197.769 193.808 197.535 193.712 197.343 193.52C197.151 193.328 197.055 193.093 197.055 192.816C197.055 192.539 197.151 192.304 197.343 192.112C197.535 191.92 197.769 191.824 198.047 191.824C198.313 191.824 198.537 191.92 198.719 192.112C198.911 192.304 199.007 192.539 199.007 192.816C199.007 193.093 198.911 193.328 198.719 193.52C198.537 193.712 198.313 193.808 198.047 193.808ZM198.751 195.232V204H197.295V195.232H198.751ZM205.504 195.072C206.571 195.072 207.435 195.397 208.096 196.048C208.757 196.688 209.088 197.616 209.088 198.832V204H207.648V199.04C207.648 198.165 207.429 197.499 206.992 197.04C206.555 196.571 205.957 196.336 205.2 196.336C204.432 196.336 203.819 196.576 203.36 197.056C202.912 197.536 202.688 198.235 202.688 199.152V204H201.232V195.232H202.688V196.48C202.976 196.032 203.365 195.685 203.856 195.44C204.357 195.195 204.907 195.072 205.504 195.072ZM215.29 204.144C214.469 204.144 213.722 203.957 213.05 203.584C212.389 203.211 211.866 202.683 211.482 202C211.109 201.307 210.922 200.507 210.922 199.6C210.922 198.704 211.114 197.915 211.498 197.232C211.893 196.539 212.426 196.011 213.098 195.648C213.77 195.275 214.522 195.088 215.354 195.088C216.186 195.088 216.938 195.275 217.61 195.648C218.282 196.011 218.81 196.533 219.194 197.216C219.589 197.899 219.786 198.693 219.786 199.6C219.786 200.507 219.584 201.307 219.178 202C218.784 202.683 218.245 203.211 217.562 203.584C216.88 203.957 216.122 204.144 215.29 204.144ZM215.29 202.864C215.813 202.864 216.304 202.741 216.762 202.496C217.221 202.251 217.589 201.883 217.866 201.392C218.154 200.901 218.298 200.304 218.298 199.6C218.298 198.896 218.16 198.299 217.882 197.808C217.605 197.317 217.242 196.955 216.794 196.72C216.346 196.475 215.861 196.352 215.338 196.352C214.805 196.352 214.314 196.475 213.866 196.72C213.429 196.955 213.077 197.317 212.81 197.808C212.544 198.299 212.41 198.896 212.41 199.6C212.41 200.315 212.538 200.917 212.794 201.408C213.061 201.899 213.413 202.267 213.85 202.512C214.288 202.747 214.768 202.864 215.29 202.864ZM61.688 247.6C61.688 246.693 61.8693 245.904 62.232 245.232C62.5947 244.549 63.096 244.021 63.736 243.648C64.3867 243.275 65.128 243.088 65.96 243.088C67.0373 243.088 67.9227 243.349 68.616 243.872C69.32 244.395 69.784 245.12 70.008 246.048H68.44C68.2907 245.515 67.9973 245.093 67.56 244.784C67.1333 244.475 66.6 244.32 65.96 244.32C65.128 244.32 64.456 244.608 63.944 245.184C63.432 245.749 63.176 246.555 63.176 247.6C63.176 248.656 63.432 249.472 63.944 250.048C64.456 250.624 65.128 250.912 65.96 250.912C66.6 250.912 67.1333 250.763 67.56 250.464C67.9867 250.165 68.28 249.739 68.44 249.184H70.008C69.7733 250.08 69.304 250.8 68.6 251.344C67.896 251.877 67.016 252.144 65.96 252.144C65.128 252.144 64.3867 251.957 63.736 251.584C63.096 251.211 62.5947 250.683 62.232 250C61.8693 249.317 61.688 248.517 61.688 247.6ZM76.3028 243.072C76.9641 243.072 77.5614 243.216 78.0948 243.504C78.6281 243.781 79.0441 244.203 79.3428 244.768C79.6521 245.333 79.8068 246.021 79.8068 246.832V252H78.3668V247.04C78.3668 246.165 78.1481 245.499 77.7108 245.04C77.2734 244.571 76.6761 244.336 75.9188 244.336C75.1508 244.336 74.5374 244.576 74.0788 245.056C73.6308 245.536 73.4068 246.235 73.4068 247.152V252H71.9508V240.16H73.4068V244.48C73.6948 244.032 74.0894 243.685 74.5908 243.44C75.1028 243.195 75.6734 243.072 76.3028 243.072ZM86.0091 252.144C85.1878 252.144 84.4411 251.957 83.7691 251.584C83.1078 251.211 82.5851 250.683 82.2011 250C81.8278 249.307 81.6411 248.507 81.6411 247.6C81.6411 246.704 81.8331 245.915 82.2171 245.232C82.6118 244.539 83.1451 244.011 83.8171 243.648C84.4891 243.275 85.2411 243.088 86.0731 243.088C86.9051 243.088 87.6571 243.275 88.3291 243.648C89.0011 244.011 89.5291 244.533 89.9131 245.216C90.3078 245.899 90.5051 246.693 90.5051 247.6C90.5051 248.507 90.3025 249.307 89.8971 250C89.5025 250.683 88.9638 251.211 88.2811 251.584C87.5985 251.957 86.8411 252.144 86.0091 252.144ZM86.0091 250.864C86.5318 250.864 87.0225 250.741 87.4811 250.496C87.9398 250.251 88.3078 249.883 88.5851 249.392C88.8731 248.901 89.0171 248.304 89.0171 247.6C89.0171 246.896 88.8785 246.299 88.6011 245.808C88.3238 245.317 87.9611 244.955 87.5131 244.72C87.0651 244.475 86.5798 244.352 86.0571 244.352C85.5238 244.352 85.0331 244.475 84.5851 244.72C84.1478 244.955 83.7958 245.317 83.5291 245.808C83.2625 246.299 83.1291 246.896 83.1291 247.6C83.1291 248.315 83.2571 248.917 83.5131 249.408C83.7798 249.899 84.1318 250.267 84.5691 250.512C85.0065 250.747 85.4865 250.864 86.0091 250.864ZM91.8755 247.6C91.8755 246.693 92.0568 245.904 92.4195 245.232C92.7822 244.549 93.2835 244.021 93.9235 243.648C94.5742 243.275 95.3155 243.088 96.1475 243.088C97.2248 243.088 98.1102 243.349 98.8035 243.872C99.5075 244.395 99.9715 245.12 100.196 246.048H98.6275C98.4782 245.515 98.1848 245.093 97.7475 244.784C97.3208 244.475 96.7875 244.32 96.1475 244.32C95.3155 244.32 94.6435 244.608 94.1315 245.184C93.6195 245.749 93.3635 246.555 93.3635 247.6C93.3635 248.656 93.6195 249.472 94.1315 250.048C94.6435 250.624 95.3155 250.912 96.1475 250.912C96.7875 250.912 97.3208 250.763 97.7475 250.464C98.1742 250.165 98.4675 249.739 98.6275 249.184H100.196C99.9608 250.08 99.4915 250.8 98.7875 251.344C98.0835 251.877 97.2035 252.144 96.1475 252.144C95.3155 252.144 94.5742 251.957 93.9235 251.584C93.2835 251.211 92.7822 250.683 92.4195 250C92.0568 249.317 91.8755 248.517 91.8755 247.6ZM105.962 252.144C105.141 252.144 104.394 251.957 103.722 251.584C103.061 251.211 102.538 250.683 102.154 250C101.781 249.307 101.594 248.507 101.594 247.6C101.594 246.704 101.786 245.915 102.17 245.232C102.565 244.539 103.098 244.011 103.77 243.648C104.442 243.275 105.194 243.088 106.026 243.088C106.858 243.088 107.61 243.275 108.282 243.648C108.954 244.011 109.482 244.533 109.866 245.216C110.261 245.899 110.458 246.693 110.458 247.6C110.458 248.507 110.256 249.307 109.85 250C109.456 250.683 108.917 251.211 108.234 251.584C107.552 251.957 106.794 252.144 105.962 252.144ZM105.962 250.864C106.485 250.864 106.976 250.741 107.434 250.496C107.893 250.251 108.261 249.883 108.538 249.392C108.826 248.901 108.97 248.304 108.97 247.6C108.97 246.896 108.832 246.299 108.554 245.808C108.277 245.317 107.914 244.955 107.466 244.72C107.018 244.475 106.533 244.352 106.01 244.352C105.477 244.352 104.986 244.475 104.538 244.72C104.101 244.955 103.749 245.317 103.482 245.808C103.216 246.299 103.082 246.896 103.082 247.6C103.082 248.315 103.21 248.917 103.466 249.408C103.733 249.899 104.085 250.267 104.522 250.512C104.96 250.747 105.44 250.864 105.962 250.864ZM113.829 240.16V252H112.373V240.16H113.829ZM115.766 247.584C115.766 246.688 115.947 245.904 116.31 245.232C116.673 244.549 117.169 244.021 117.798 243.648C118.438 243.275 119.147 243.088 119.926 243.088C120.694 243.088 121.361 243.253 121.926 243.584C122.491 243.915 122.913 244.331 123.19 244.832V243.232H124.662V252H123.19V250.368C122.902 250.88 122.47 251.307 121.894 251.648C121.329 251.979 120.667 252.144 119.91 252.144C119.131 252.144 118.427 251.952 117.798 251.568C117.169 251.184 116.673 250.645 116.31 249.952C115.947 249.259 115.766 248.469 115.766 247.584ZM123.19 247.6C123.19 246.939 123.057 246.363 122.79 245.872C122.523 245.381 122.161 245.008 121.702 244.752C121.254 244.485 120.758 244.352 120.214 244.352C119.67 244.352 119.174 244.48 118.726 244.736C118.278 244.992 117.921 245.365 117.654 245.856C117.387 246.347 117.254 246.923 117.254 247.584C117.254 248.256 117.387 248.843 117.654 249.344C117.921 249.835 118.278 250.213 118.726 250.48C119.174 250.736 119.67 250.864 120.214 250.864C120.758 250.864 121.254 250.736 121.702 250.48C122.161 250.213 122.523 249.835 122.79 249.344C123.057 248.843 123.19 248.261 123.19 247.6ZM128.899 244.432V249.6C128.899 250.027 128.989 250.331 129.171 250.512C129.352 250.683 129.667 250.768 130.115 250.768H131.187V252H129.875C129.064 252 128.456 251.813 128.051 251.44C127.645 251.067 127.443 250.453 127.443 249.6V244.432H126.307V243.232H127.443V241.024H128.899V243.232H131.187V244.432H128.899ZM140.951 247.28C140.951 247.557 140.935 247.851 140.903 248.16H133.895C133.948 249.024 134.241 249.701 134.775 250.192C135.319 250.672 135.975 250.912 136.743 250.912C137.372 250.912 137.895 250.768 138.311 250.48C138.737 250.181 139.036 249.787 139.207 249.296H140.775C140.54 250.139 140.071 250.827 139.367 251.36C138.663 251.883 137.788 252.144 136.743 252.144C135.911 252.144 135.164 251.957 134.503 251.584C133.852 251.211 133.34 250.683 132.967 250C132.593 249.307 132.407 248.507 132.407 247.6C132.407 246.693 132.588 245.899 132.951 245.216C133.313 244.533 133.82 244.011 134.471 243.648C135.132 243.275 135.889 243.088 136.743 243.088C137.575 243.088 138.311 243.269 138.951 243.632C139.591 243.995 140.081 244.496 140.423 245.136C140.775 245.765 140.951 246.48 140.951 247.28ZM139.447 246.976C139.447 246.421 139.324 245.947 139.079 245.552C138.833 245.147 138.497 244.843 138.071 244.64C137.655 244.427 137.191 244.32 136.679 244.32C135.943 244.32 135.313 244.555 134.791 245.024C134.279 245.493 133.985 246.144 133.911 246.976H139.447Z" fill="#192B11"/>
<line x1="47" y1="76.75" x2="429" y2="76.75" stroke="#E7E7E7" stroke-width="0.5"/>
<line x1="47" y1="126.75" x2="429" y2="126.75" stroke="#E7E7E7" stroke-width="0.5"/>
<line x1="47" y1="176.75" x2="429" y2="176.75" stroke="#E7E7E7" stroke-width="0.5"/>
<line x1="47" y1="226.75" x2="429" y2="226.75" stroke="#E7E7E7" stroke-width="0.5"/>
<line x1="47" y1="276.75" x2="429" y2="276.75" stroke="#E7E7E7" stroke-width="0.5"/>
<path d="M185.768 308.112C185.032 308.112 184.371 307.984 183.784 307.728C183.208 307.461 182.755 307.099 182.424 306.64C182.093 306.171 181.923 305.632 181.912 305.024H183.464C183.517 305.547 183.731 305.989 184.104 306.352C184.488 306.704 185.043 306.88 185.768 306.88C186.461 306.88 187.005 306.709 187.4 306.368C187.805 306.016 188.008 305.568 188.008 305.024C188.008 304.597 187.891 304.251 187.656 303.984C187.421 303.717 187.128 303.515 186.776 303.376C186.424 303.237 185.949 303.088 185.352 302.928C184.616 302.736 184.024 302.544 183.576 302.352C183.139 302.16 182.76 301.861 182.44 301.456C182.131 301.04 181.976 300.485 181.976 299.792C181.976 299.184 182.131 298.645 182.44 298.176C182.749 297.707 183.181 297.344 183.736 297.088C184.301 296.832 184.947 296.704 185.672 296.704C186.717 296.704 187.571 296.965 188.232 297.488C188.904 298.011 189.283 298.704 189.368 299.568H187.768C187.715 299.141 187.491 298.768 187.096 298.448C186.701 298.117 186.179 297.952 185.528 297.952C184.92 297.952 184.424 298.112 184.04 298.432C183.656 298.741 183.464 299.179 183.464 299.744C183.464 300.149 183.576 300.48 183.8 300.736C184.035 300.992 184.317 301.189 184.648 301.328C184.989 301.456 185.464 301.605 186.072 301.776C186.808 301.979 187.4 302.181 187.848 302.384C188.296 302.576 188.68 302.88 189 303.296C189.32 303.701 189.48 304.256 189.48 304.96C189.48 305.504 189.336 306.016 189.048 306.496C188.76 306.976 188.333 307.365 187.768 307.664C187.203 307.963 186.536 308.112 185.768 308.112ZM199.623 303.28C199.623 303.557 199.607 303.851 199.575 304.16H192.567C192.62 305.024 192.913 305.701 193.447 306.192C193.991 306.672 194.647 306.912 195.415 306.912C196.044 306.912 196.567 306.768 196.983 306.48C197.409 306.181 197.708 305.787 197.879 305.296H199.447C199.212 306.139 198.743 306.827 198.039 307.36C197.335 307.883 196.46 308.144 195.415 308.144C194.583 308.144 193.836 307.957 193.175 307.584C192.524 307.211 192.012 306.683 191.639 306C191.265 305.307 191.079 304.507 191.079 303.6C191.079 302.693 191.26 301.899 191.623 301.216C191.985 300.533 192.492 300.011 193.143 299.648C193.804 299.275 194.561 299.088 195.415 299.088C196.247 299.088 196.983 299.269 197.623 299.632C198.263 299.995 198.753 300.496 199.095 301.136C199.447 301.765 199.623 302.48 199.623 303.28ZM198.119 302.976C198.119 302.421 197.996 301.947 197.751 301.552C197.505 301.147 197.169 300.843 196.743 300.64C196.327 300.427 195.863 300.32 195.351 300.32C194.615 300.32 193.985 300.555 193.463 301.024C192.951 301.493 192.657 302.144 192.583 302.976H198.119ZM209.545 303.28C209.545 303.557 209.529 303.851 209.497 304.16H202.489C202.542 305.024 202.835 305.701 203.369 306.192C203.913 306.672 204.569 306.912 205.337 306.912C205.966 306.912 206.489 306.768 206.905 306.48C207.331 306.181 207.63 305.787 207.801 305.296H209.369C209.134 306.139 208.665 306.827 207.961 307.36C207.257 307.883 206.382 308.144 205.337 308.144C204.505 308.144 203.758 307.957 203.097 307.584C202.446 307.211 201.934 306.683 201.561 306C201.187 305.307 201.001 304.507 201.001 303.6C201.001 302.693 201.182 301.899 201.545 301.216C201.907 300.533 202.414 300.011 203.065 299.648C203.726 299.275 204.483 299.088 205.337 299.088C206.169 299.088 206.905 299.269 207.545 299.632C208.185 299.995 208.675 300.496 209.017 301.136C209.369 301.765 209.545 302.48 209.545 303.28ZM208.041 302.976C208.041 302.421 207.918 301.947 207.673 301.552C207.427 301.147 207.091 300.843 206.665 300.64C206.249 300.427 205.785 300.32 205.273 300.32C204.537 300.32 203.907 300.555 203.385 301.024C202.873 301.493 202.579 302.144 202.505 302.976H208.041ZM226.276 299.072C226.959 299.072 227.567 299.216 228.1 299.504C228.633 299.781 229.055 300.203 229.364 300.768C229.673 301.333 229.828 302.021 229.828 302.832V308H228.388V303.04C228.388 302.165 228.169 301.499 227.732 301.04C227.305 300.571 226.724 300.336 225.988 300.336C225.231 300.336 224.628 300.581 224.18 301.072C223.732 301.552 223.508 302.251 223.508 303.168V308H222.068V303.04C222.068 302.165 221.849 301.499 221.412 301.04C220.985 300.571 220.404 300.336 219.668 300.336C218.911 300.336 218.308 300.581 217.86 301.072C217.412 301.552 217.188 302.251 217.188 303.168V308H215.732V299.232H217.188V300.496C217.476 300.037 217.86 299.685 218.34 299.44C218.831 299.195 219.369 299.072 219.956 299.072C220.692 299.072 221.343 299.237 221.908 299.568C222.473 299.899 222.895 300.384 223.172 301.024C223.417 300.405 223.823 299.925 224.388 299.584C224.953 299.243 225.583 299.072 226.276 299.072ZM236.04 308.144C235.219 308.144 234.472 307.957 233.8 307.584C233.139 307.211 232.616 306.683 232.232 306C231.859 305.307 231.672 304.507 231.672 303.6C231.672 302.704 231.864 301.915 232.248 301.232C232.643 300.539 233.176 300.011 233.848 299.648C234.52 299.275 235.272 299.088 236.104 299.088C236.936 299.088 237.688 299.275 238.36 299.648C239.032 300.011 239.56 300.533 239.944 301.216C240.339 301.899 240.536 302.693 240.536 303.6C240.536 304.507 240.334 305.307 239.928 306C239.534 306.683 238.995 307.211 238.312 307.584C237.63 307.957 236.872 308.144 236.04 308.144ZM236.04 306.864C236.563 306.864 237.054 306.741 237.512 306.496C237.971 306.251 238.339 305.883 238.616 305.392C238.904 304.901 239.048 304.304 239.048 303.6C239.048 302.896 238.91 302.299 238.632 301.808C238.355 301.317 237.992 300.955 237.544 300.72C237.096 300.475 236.611 300.352 236.088 300.352C235.555 300.352 235.064 300.475 234.616 300.72C234.179 300.955 233.827 301.317 233.56 301.808C233.294 302.299 233.16 302.896 233.16 303.6C233.16 304.315 233.288 304.917 233.544 305.408C233.811 305.899 234.163 306.267 234.6 306.512C235.038 306.747 235.518 306.864 236.04 306.864ZM243.907 300.656C244.163 300.155 244.525 299.765 244.995 299.488C245.475 299.211 246.056 299.072 246.739 299.072V300.576H246.355C244.723 300.576 243.907 301.461 243.907 303.232V308H242.451V299.232H243.907V300.656ZM256.42 303.28C256.42 303.557 256.404 303.851 256.372 304.16H249.364C249.417 305.024 249.71 305.701 250.244 306.192C250.788 306.672 251.444 306.912 252.212 306.912C252.841 306.912 253.364 306.768 253.78 306.48C254.206 306.181 254.505 305.787 254.676 305.296H256.244C256.009 306.139 255.54 306.827 254.836 307.36C254.132 307.883 253.257 308.144 252.212 308.144C251.38 308.144 250.633 307.957 249.972 307.584C249.321 307.211 248.809 306.683 248.436 306C248.062 305.307 247.876 304.507 247.876 303.6C247.876 302.693 248.057 301.899 248.42 301.216C248.782 300.533 249.289 300.011 249.94 299.648C250.601 299.275 251.358 299.088 252.212 299.088C253.044 299.088 253.78 299.269 254.42 299.632C255.06 299.995 255.55 300.496 255.892 301.136C256.244 301.765 256.42 302.48 256.42 303.28ZM254.916 302.976C254.916 302.421 254.793 301.947 254.548 301.552C254.302 301.147 253.966 300.843 253.54 300.64C253.124 300.427 252.66 300.32 252.148 300.32C251.412 300.32 250.782 300.555 250.26 301.024C249.748 301.493 249.454 302.144 249.38 302.976H254.916Z" fill="#A99373"/>
<path d="M271.714 308.989C271.595 308.989 271.474 308.942 271.383 308.851C271.2 308.669 271.2 308.37 271.383 308.188L277.62 301.948L271.474 295.801C271.291 295.619 271.291 295.32 271.474 295.138C271.656 294.956 271.954 294.956 272.136 295.138L278.614 301.616C278.797 301.798 278.797 302.097 278.614 302.279L272.045 308.851C271.954 308.942 271.833 308.989 271.714 308.989L271.714 308.989Z" fill="#A99373"/>
</g>
<defs>
<filter id="filter0_d" x="0" y="0" width="567" height="427" filterUnits="userSpaceOnUse" color-interpolation-filters="sRGB">
<feFlood flood-opacity="0" result="BackgroundImageFix"/>
<feColorMatrix in="SourceAlpha" type="matrix" values="0 0 0 0 0 0 0 0 0 0 0 0 0 0 0 0 0 0 127 0"/>
<feOffset dx="48" dy="33"/>
<feGaussianBlur stdDeviation="30"/>
<feColorMatrix type="matrix" values="0 0 0 0 0.12549 0 0 0 0 0.192157 0 0 0 0 0.231373 0 0 0 0.15 0"/>
<feBlend mode="normal" in2="BackgroundImageFix" result="effect1_dropShadow"/>
<feBlend mode="normal" in="SourceGraphic" in2="effect1_dropShadow" result="shape"/>
</filter>
</defs>
</svg>
