<svg width="3" height="3" viewBox="0 0 3 3" fill="none" xmlns="http://www.w3.org/2000/svg">
<path fill-rule="evenodd" clip-rule="evenodd" d="M0.759277 1.53179C0.759277 1.2058 1.03341 0.941528 1.37156 0.941528H1.41237C1.75053 0.941528 2.02466 1.2058 2.02466 1.53179C2.02466 1.85778 1.75053 2.12205 1.41237 2.12205H1.37156C1.03341 2.12205 0.759277 1.85778 0.759277 1.53179Z" fill="#20313B"/>
</svg>
