<svg width="159" height="159" viewBox="0 0 159 159" fill="none" xmlns="http://www.w3.org/2000/svg">
<g opacity="0.2">
<mask id="mask0" mask-type="alpha" maskUnits="userSpaceOnUse" x="0" y="0" width="159" height="159">
<rect x="0.896973" y="0.831055" width="157.542" height="157.542" fill="#C4C4C4"/>
</mask>
<g mask="url(#mask0)">
<line x1="181.849" y1="-29.4198" x2="2.98009" y2="149.449" stroke="white" stroke-width="2"/>
<line x1="159.146" y1="-29.4198" x2="-19.7225" y2="149.449" stroke="white" stroke-width="2"/>
<line x1="262.34" y1="1.53816" x2="83.4708" y2="180.407" stroke="white" stroke-width="2"/>
<line x1="136.444" y1="-29.4198" x2="-42.4252" y2="149.449" stroke="white" stroke-width="2"/>
<line x1="239.637" y1="1.53816" x2="60.7684" y2="180.407" stroke="white" stroke-width="2"/>
<line x1="113.741" y1="-29.4198" x2="-65.1278" y2="149.449" stroke="white" stroke-width="2"/>
<line x1="216.935" y1="1.53816" x2="38.0658" y2="180.407" stroke="white" stroke-width="2"/>
<line x1="91.0386" y1="-29.4198" x2="-87.8302" y2="149.449" stroke="white" stroke-width="2"/>
<line x1="194.232" y1="1.53816" x2="15.3631" y2="180.407" stroke="white" stroke-width="2"/>
<line x1="68.336" y1="-29.4198" x2="-110.533" y2="149.449" stroke="white" stroke-width="2"/>
<line x1="171.529" y1="1.53816" x2="-7.33949" y2="180.407" stroke="white" stroke-width="2"/>
</g>
</g>
</svg>
