<svg width="158" height="159" viewBox="0 0 158 159" fill="none" xmlns="http://www.w3.org/2000/svg">
<g opacity="0.2">
<mask id="mask0" mask-type="alpha" maskUnits="userSpaceOnUse" x="0" y="0" width="158" height="159">
<rect y="0.587891" width="157.542" height="157.542" fill="#C4C4C4"/>
</mask>
<g mask="url(#mask0)">
<line x1="180.952" y1="-29.663" x2="2.08288" y2="149.206" stroke="white" stroke-width="2"/>
<line x1="158.249" y1="-29.663" x2="-20.6198" y2="149.206" stroke="white" stroke-width="2"/>
<line x1="261.443" y1="1.295" x2="82.5741" y2="180.164" stroke="white" stroke-width="2"/>
<line x1="135.546" y1="-29.663" x2="-43.3224" y2="149.206" stroke="white" stroke-width="2"/>
<line x1="238.74" y1="1.295" x2="59.8715" y2="180.164" stroke="white" stroke-width="2"/>
<line x1="112.844" y1="-29.663" x2="-66.025" y2="149.206" stroke="white" stroke-width="2"/>
<line x1="216.038" y1="1.295" x2="37.1688" y2="180.164" stroke="white" stroke-width="2"/>
<line x1="90.1417" y1="-29.663" x2="-88.7272" y2="149.206" stroke="white" stroke-width="2"/>
<line x1="193.335" y1="1.295" x2="14.4662" y2="180.164" stroke="white" stroke-width="2"/>
<line x1="67.439" y1="-29.663" x2="-111.43" y2="149.206" stroke="white" stroke-width="2"/>
<line x1="170.632" y1="1.295" x2="-8.23646" y2="180.164" stroke="white" stroke-width="2"/>
</g>
</g>
</svg>
