<svg width="16" height="17" viewBox="0 0 16 17" fill="none" xmlns="http://www.w3.org/2000/svg">
<path d="M7.60845 0L9.95959 5.30004L15.2169 6.14994L11.4127 10.2754L12.3107 16.1007L7.60845 13.3504L2.90617 16.1007L3.80423 10.2754L0 6.14994L5.25731 5.30004L7.60845 0Z" fill="#B99F78"/>
</svg>
