<svg width="16" height="17" viewBox="0 0 16 17" fill="none" xmlns="http://www.w3.org/2000/svg">
<path fill-rule="evenodd" clip-rule="evenodd" d="M9.95959 5.30004L7.60845 0L5.25731 5.30004L0 6.14994L3.80423 10.2754L2.90617 16.1007L7.60845 13.3504L12.3107 16.1007L11.4127 10.2754L15.2169 6.14994L9.95959 5.30004ZM13.0679 6.92676L9.29553 6.3169L7.60845 2.51383L5.92138 6.3169L2.14896 6.92676L4.87871 9.88704L4.2343 14.067L7.60845 12.0935L10.9826 14.067L10.3382 9.88704L13.0679 6.92676Z" fill="#B99F78"/>
</svg>
