<svg width="7" height="13" viewBox="0 0 7 13" fill="none" xmlns="http://www.w3.org/2000/svg">
<path d="M0.436386 13C0.325684 13 0.212394 12.9564 0.127437 12.8717C-0.0424789 12.7022 -0.0424789 12.425 0.127437 12.2556L5.94318 6.457L0.212394 0.743114C0.0424782 0.5737 0.0424782 0.296476 0.212394 0.127061C0.382309 -0.0423536 0.660352 -0.0423537 0.830268 0.127061L6.87256 6.14898C7.04248 6.31839 7.04248 6.59562 6.87256 6.76503L0.747885 12.8717C0.660353 12.9589 0.549651 13 0.436386 13Z" fill="#B99F78"/>
</svg>
