<svg width="22" height="20" viewBox="0 0 22 20" fill="none" xmlns="http://www.w3.org/2000/svg">
<path d="M5.41908 19.332H1.15101V6.44944H5.41908V19.332ZM3.28275 4.69213C1.91825 4.69213 0.811035 3.63258 0.811035 2.35337C0.811035 1.07415 1.91825 0.0361328 3.28275 0.0361328C4.64724 0.0361328 5.75446 1.07415 5.75446 2.35337C5.75446 3.63258 4.64724 4.69213 3.28275 4.69213ZM21.3933 19.332H17.1344V13.0609C17.1344 11.5663 17.1023 9.64963 14.9154 9.64963C12.6964 9.64963 12.3564 11.2734 12.3564 12.9532V19.332H8.09294V6.44944H12.1864V8.20675H12.2461C12.8158 7.19457 14.2079 6.12641 16.2845 6.12641C20.6031 6.12641 21.3979 8.79252 21.3979 12.2554V19.332H21.3933Z" fill="#20313B"/>
</svg>
