<svg width="20" height="20" viewBox="0 0 20 20" fill="none" xmlns="http://www.w3.org/2000/svg">
<path d="M19.9923 2.29541V17.0194C19.9923 18.1278 19.033 19.0272 17.8506 19.0272H14.0447V11.615H16.7486L17.1367 8.78733H14.0447V6.9803C14.0447 6.16045 14.2857 5.60412 15.5394 5.60412H17.1367V3.07762C16.8601 3.04416 15.9142 2.96468 14.8077 2.96468C12.5054 2.96468 10.9259 4.28231 10.9259 6.70423V8.79152H8.21314V11.6192H10.9304V19.0272H2.14508C0.962706 19.0272 0.00341797 18.1278 0.00341797 17.0194V2.29541C0.00341797 1.18693 0.962706 0.287598 2.14508 0.287598H17.8506C19.033 0.287598 19.9923 1.18693 19.9923 2.29541Z" fill="#20313B"/>
</svg>
