<svg width="14" height="8" viewBox="0 0 14 8" fill="none" xmlns="http://www.w3.org/2000/svg">
<path d="M0.112305 0.765248C0.112305 0.64767 0.158789 0.527344 0.249023 0.437109C0.429492 0.256641 0.724805 0.256641 0.905273 0.437109L7.08223 6.61406L13.1689 0.527343C13.3494 0.346875 13.6447 0.346875 13.8252 0.527343C14.0057 0.707812 14.0057 1.00312 13.8252 1.18359L7.41035 7.60117C7.22988 7.78163 6.93457 7.78163 6.7541 7.60117L0.249023 1.09609C0.156055 1.00312 0.112305 0.885546 0.112305 0.765248Z" fill="#20313B"/>
</svg>
