<svg width="12" height="7" viewBox="0 0 12 7" fill="none" xmlns="http://www.w3.org/2000/svg">
<path d="M11.088 0.499765L5.54329 6.04377L0 0.499765L0.499059 0.000705831L5.54259 5.04494L10.5882 0L11.088 0.499765Z" fill="#20313B"/>
</svg>
