<svg width="20" height="19" viewBox="0 0 20 19" fill="none" xmlns="http://www.w3.org/2000/svg">
<path d="M17.9376 5.30822C17.9503 5.49846 17.9503 5.68874 17.9503 5.87898C17.9503 11.6816 13.8282 18.3675 6.29433 18.3675C3.97328 18.3675 1.81714 17.6472 0.00341797 16.3971C0.333195 16.4378 0.650246 16.4514 0.992711 16.4514C2.90786 16.4514 4.67086 15.7584 6.07871 14.5761C4.27768 14.5353 2.76836 13.2715 2.24834 11.5321C2.50203 11.5728 2.75568 11.6 3.02205 11.6C3.38985 11.6 3.7577 11.5457 4.10012 11.4506C2.223 11.0429 0.815115 9.27628 0.815115 7.14277V7.08844C1.36048 7.41458 1.99469 7.61842 2.66686 7.64556C1.56341 6.85737 0.840491 5.51205 0.840491 3.99005C0.840491 3.17471 1.04339 2.4273 1.39854 1.77501C3.41519 4.4385 6.44651 6.17789 9.8456 6.36818C9.7822 6.04203 9.74413 5.70234 9.74413 5.3626C9.74413 2.94368 11.5705 0.973267 13.8408 0.973267C15.0204 0.973267 16.0858 1.50325 16.8341 2.35937C17.7599 2.16913 18.6478 1.8022 19.4342 1.29941C19.1297 2.31863 18.4829 3.17475 17.6331 3.71828C18.4576 3.6232 19.2566 3.37854 19.9922 3.03885C19.4342 3.90852 18.7366 4.68308 17.9376 5.30822Z" fill="#20313B"/>
</svg>
