<svg width="22" height="20" viewBox="0 0 22 20" fill="none" xmlns="http://www.w3.org/2000/svg">
<path d="M5.41914 19.2959H1.15107V6.41331H5.41914V19.2959ZM3.28281 4.656C1.91831 4.656 0.811096 3.59645 0.811096 2.31723C0.811096 1.03802 1.91831 0 3.28281 0C4.6473 0 5.75452 1.03802 5.75452 2.31723C5.75452 3.59645 4.6473 4.656 3.28281 4.656ZM21.3934 19.2959H17.1345V13.0247C17.1345 11.5302 17.1023 9.6135 14.9155 9.6135C12.6964 9.6135 12.3565 11.2373 12.3565 12.9171V19.2959H8.093V6.41331H12.1865V8.17061H12.2462C12.8159 7.15844 14.208 6.09027 16.2846 6.09027C20.6032 6.09027 21.398 8.75638 21.398 12.2193V19.2959H21.3934Z" fill="#20313B"/>
</svg>
