<svg width="46" height="47" viewBox="0 0 46 47" fill="none" xmlns="http://www.w3.org/2000/svg">
<path d="M22.9913 0.991669C10.4671 0.991669 0.315918 11.2467 0.315918 23.8983C0.315918 36.55 10.4689 46.805 22.9913 46.805C35.5155 46.805 45.6667 36.55 45.6667 23.8983C45.6667 11.2467 35.5155 0.991669 22.9913 0.991669ZM20.9789 5.50271C21.6691 5.69757 22.17 6.56991 22.7491 7.13994C22.7509 7.13994 22.7545 7.13994 22.7545 7.13994C22.7545 7.13994 22.7582 7.13994 22.76 7.13994C23.3391 6.56991 23.84 5.69757 24.5302 5.50271C25.2933 5.28781 26.2621 7.2146 25.7649 8.26906C25.0183 9.8553 24.0458 11.3468 22.9968 13.1116C22.9294 13.2682 22.862 13.4248 22.7946 13.5887C22.78 13.565 22.7673 13.5432 22.7527 13.5195C22.7382 13.5432 22.7254 13.565 22.7108 13.5887C22.6435 13.4248 22.5761 13.2682 22.5087 13.1116C21.4597 11.3468 20.4872 9.85348 19.7405 8.26906C19.247 7.2146 20.2158 5.28781 20.9789 5.50271ZM19.9099 11.0536C20.9771 12.7309 22.0042 14.3427 22.9603 15.8451C23.8691 14.2534 24.8653 12.5124 26.0144 10.5018C27.8046 14.8034 23.4739 16.5863 22.9567 19.7479C20.0374 16.8759 18.646 13.0678 19.9099 11.0536ZM18.0723 15.0948C19.7551 17.9741 21.4105 20.8042 22.8347 23.2373C24.186 20.5292 25.734 17.4223 27.2929 14.2971C28.7098 16.4352 28.4985 20.5401 26.8212 22.2629C25.5719 23.5469 24.2169 24.727 22.9895 25.8798C21.5599 24.6177 20.061 23.3429 18.6187 22.008C16.772 20.2924 16.5316 17.3858 18.0723 15.0948ZM19.4273 25.1386C21.0572 26.3096 21.8822 27.9832 22.1845 29.9556C21.1446 27.6864 19.5293 26.0965 16.9578 25.5192C18.4274 27.0981 19.899 28.6771 21.3686 30.256C16.8722 28.1981 13.7179 25.1313 13.7288 19.7479C14.7614 22.5379 17.3001 23.6088 19.4273 25.1386ZM10.6037 23.6798C11.1555 24.5139 11.5707 25.1167 11.9605 25.7359C13.4138 28.0506 15.5373 29.269 18.1452 29.8882C20.8642 30.5347 22.3502 32.2976 22.6016 35.1951C21.7347 32.9805 20.112 32.385 18.3983 31.8787C16.7884 31.4034 15.2003 30.8497 13.4939 30.2943C14.4537 32.13 16.0709 32.9186 17.8465 33.536C18.9082 33.9057 20.0738 34.2062 20.9297 34.88C21.7857 35.552 22.312 36.652 22.7564 37.7775C21.2921 35.5356 18.9938 35.0421 16.7101 34.4429C11.6199 33.1062 8.97922 28.566 10.6037 23.6798ZM22.2446 43.3503C20.7476 42.3887 19.3417 41.2377 17.7554 40.471C15.8778 39.564 13.7853 39.1142 11.8949 38.2291C8.21797 36.5063 6.05807 32.0262 7.09613 28.0761C7.13438 27.9341 7.291 27.3677 7.5496 27.0654C8.45108 31.9497 11.813 33.8947 16.0563 34.8946C18.3036 35.4245 20.347 36.4316 21.8003 38.3384C22.2282 38.8993 22.4959 39.5859 22.5142 40.4728C22.17 40.1031 21.884 39.6369 21.4706 39.3783C20.0009 38.4622 18.6733 37.0417 16.9778 36.7795C14.8616 36.4517 12.2209 35.3845 10.3524 33.9858C11.079 35.2406 11.1264 35.47 12.6616 36.9634C13.9109 38.1781 15.3351 38.0525 17.0124 38.5588C19.4673 39.3 21.762 40.1851 22.7618 42.884C22.8347 43.0789 23.0933 43.2027 23.1097 43.7054C22.8183 43.5906 22.5032 43.516 22.2446 43.3503ZM25.581 24.7816C27.5388 22.8566 29.9919 21.3414 30.6147 18.2891C31.4779 23.851 28.7043 27.5279 24.3845 30.3817C25.6539 28.5132 26.9232 26.6428 28.1926 24.7743C25.6265 25.7869 24.2115 27.69 23.4958 30.2032C23.4958 28.118 24.084 26.2549 25.581 24.7816ZM27.903 30.6858C25.4226 31.3997 25.6156 31.7203 24.1805 33.7527C24.1459 33.7345 24.1095 33.7181 24.0713 33.7053C24.5393 32.7602 24.9964 31.8059 25.6648 31.0391C26.6573 29.9009 28.0724 29.1506 29.2142 28.1307C30.999 26.5372 32.7091 24.8599 34.37 23.2937C35.286 25.1404 34.6869 28.7791 32.4996 30.7387C30.877 32.1919 28.8791 33.2245 27.027 34.4101C25.9926 35.073 24.9381 35.6886 23.9165 36.3005C23.9693 35.8561 24.0858 35.4336 24.3845 35.0566C25.4626 33.953 26.0818 32.7164 27.2401 32.2302C28.5149 31.6948 29.9901 30.2815 30.9498 29.2854C30.8241 29.1743 29.2944 30.2105 27.903 30.6858ZM38.9338 31.8496C38.2855 34.636 36.366 36.4061 33.9657 37.6391C32.5106 38.3857 30.9316 38.8957 29.3872 39.4566C27.7628 40.0466 26.1146 40.5711 24.0494 41.2668C27.1199 37.9195 32.0571 38.4987 34.716 34.9674C31.0445 36.5081 27.5224 37.9869 24.0403 39.4493C24.3116 38.3202 25.2805 37.3768 26.5553 36.7339C28.178 35.9162 29.8571 35.2114 31.4871 34.4065C34.7961 32.7747 37.1072 30.3635 37.3749 25.9417C39.1942 27.9213 39.4055 29.8244 38.9338 31.8496Z" fill="white"/>
</svg>
