<svg width="22" height="20" viewBox="0 0 22 20" fill="none" xmlns="http://www.w3.org/2000/svg">
<path d="M10.9806 4.7023C8.05862 4.7023 5.70177 6.91185 5.70177 9.65119C5.70177 12.3905 8.05862 14.6001 10.9806 14.6001C13.9025 14.6001 16.2594 12.3905 16.2594 9.65119C16.2594 6.91185 13.9025 4.7023 10.9806 4.7023ZM10.9806 12.8686C9.09233 12.8686 7.54866 11.4257 7.54866 9.65119C7.54866 7.87665 9.08774 6.43376 10.9806 6.43376C12.8734 6.43376 14.4125 7.87665 14.4125 9.65119C14.4125 11.4257 12.8688 12.8686 10.9806 12.8686ZM17.7066 4.49987C17.7066 5.14163 17.1553 5.65418 16.4753 5.65418C15.7908 5.65418 15.244 5.13732 15.244 4.49987C15.244 3.86241 15.7954 3.34556 16.4753 3.34556C17.1553 3.34556 17.7066 3.86241 17.7066 4.49987ZM21.2028 5.6714C21.1247 4.12515 20.748 2.75548 19.5397 1.62702C18.336 0.498549 16.875 0.145365 15.2257 0.0678372C13.5258 -0.0226124 8.43076 -0.0226124 6.73088 0.0678372C5.08614 0.141058 3.62517 0.494242 2.41688 1.62271C1.20859 2.75117 0.836453 4.12084 0.753756 5.6671C0.657277 7.26073 0.657277 12.0373 0.753756 13.631C0.831858 15.1772 1.20859 16.5469 2.41688 17.6754C3.62517 18.8038 5.08154 19.157 6.73088 19.2345C8.43076 19.325 13.5258 19.325 15.2257 19.2345C16.875 19.1613 18.336 18.8081 19.5397 17.6754C20.7434 16.5469 21.1201 15.1772 21.2028 13.631C21.2993 12.0373 21.2993 7.26504 21.2028 5.6714ZM19.0067 15.3409C18.6484 16.1851 17.9547 16.8355 17.0496 17.1757C15.6943 17.6797 12.4783 17.5634 10.9806 17.5634C9.48284 17.5634 6.26227 17.6754 4.91156 17.1757C4.01108 16.8398 3.31735 16.1894 2.9544 15.3409C2.41688 14.0703 2.54092 11.0553 2.54092 9.65119C2.54092 8.24706 2.42147 5.22777 2.9544 3.96148C3.31276 3.11728 4.00649 2.4669 4.91156 2.12664C6.26686 1.62271 9.48284 1.739 10.9806 1.739C12.4783 1.739 15.6989 1.62702 17.0496 2.12664C17.9501 2.4626 18.6438 3.11297 19.0067 3.96148C19.5443 5.23208 19.4202 8.24706 19.4202 9.65119C19.4202 11.0553 19.5443 14.0746 19.0067 15.3409Z" fill="#20313B"/>
</svg>
