<svg width="22" height="20" viewBox="0 0 22 20" fill="none" xmlns="http://www.w3.org/2000/svg">
<path d="M21.5266 2.06742V17.2285C21.5266 18.3699 20.5389 19.2959 19.3214 19.2959H15.4025V11.6637H18.1866L18.5863 8.75207H15.4025V6.8914C15.4025 6.0472 15.6506 5.47435 16.9416 5.47435H18.5863V2.87285C18.3015 2.83839 17.3275 2.75656 16.1881 2.75656C13.8175 2.75656 12.1911 4.1133 12.1911 6.60713V8.75638H9.39778V11.668H12.1957V19.2959H3.14958C1.9321 19.2959 0.944336 18.3699 0.944336 17.2285V2.06742C0.944336 0.926031 1.9321 0 3.14958 0H19.3214C20.5389 0 21.5266 0.926031 21.5266 2.06742Z" fill="#20313B"/>
</svg>
