<svg width="22" height="20" viewBox="0 0 22 20" fill="none" xmlns="http://www.w3.org/2000/svg">
<path d="M10.9803 4.7023C8.05838 4.7023 5.70152 6.91185 5.70152 9.65119C5.70152 12.3905 8.05838 14.6001 10.9803 14.6001C13.9023 14.6001 16.2591 12.3905 16.2591 9.65119C16.2591 6.91185 13.9023 4.7023 10.9803 4.7023ZM10.9803 12.8686C9.09209 12.8686 7.54842 11.4257 7.54842 9.65119C7.54842 7.87665 9.08749 6.43376 10.9803 6.43376C12.8732 6.43376 14.4122 7.87665 14.4122 9.65119C14.4122 11.4257 12.8686 12.8686 10.9803 12.8686ZM17.7063 4.49987C17.7063 5.14163 17.155 5.65418 16.4751 5.65418C15.7905 5.65418 15.2438 5.13732 15.2438 4.49987C15.2438 3.86241 15.7951 3.34556 16.4751 3.34556C17.155 3.34556 17.7063 3.86241 17.7063 4.49987ZM21.2025 5.6714C21.1244 4.12515 20.7477 2.75548 19.5394 1.62702C18.3357 0.498549 16.8748 0.145365 15.2254 0.0678372C13.5255 -0.0226124 8.43051 -0.0226124 6.73064 0.0678372C5.0859 0.141058 3.62492 0.494242 2.41663 1.62271C1.20834 2.75117 0.836208 4.12084 0.753512 5.6671C0.657033 7.26073 0.657033 12.0373 0.753512 13.631C0.831614 15.1772 1.20834 16.5469 2.41663 17.6754C3.62492 18.8038 5.0813 19.157 6.73064 19.2345C8.43051 19.325 13.5255 19.325 15.2254 19.2345C16.8748 19.1613 18.3357 18.8081 19.5394 17.6754C20.7431 16.5469 21.1198 15.1772 21.2025 13.631C21.299 12.0373 21.299 7.26504 21.2025 5.6714ZM19.0065 15.3409C18.6481 16.1851 17.9544 16.8355 17.0493 17.1757C15.694 17.6797 12.4781 17.5634 10.9803 17.5634C9.4826 17.5634 6.26202 17.6754 4.91131 17.1757C4.01084 16.8398 3.31711 16.1894 2.95416 15.3409C2.41663 14.0703 2.54068 11.0553 2.54068 9.65119C2.54068 8.24706 2.42123 5.22777 2.95416 3.96148C3.31251 3.11728 4.00624 2.4669 4.91131 2.12664C6.26662 1.62271 9.4826 1.739 10.9803 1.739C12.4781 1.739 15.6986 1.62702 17.0493 2.12664C17.9498 2.4626 18.6435 3.11297 19.0065 3.96148C19.544 5.23208 19.42 8.24706 19.42 9.65119C19.42 11.0553 19.544 14.0746 19.0065 15.3409Z" fill="#20313B"/>
</svg>
