<svg width="14" height="14" viewBox="0 0 14 14" fill="none" xmlns="http://www.w3.org/2000/svg">
<path d="M3.01049 8.21533L2.01716 12.5167C1.95583 12.7827 2.06249 13.0593 2.28783 13.2147C2.40183 13.2933 2.53383 13.3333 2.66649 13.3333C2.79516 13.3333 2.92449 13.296 3.03649 13.2213L6.66649 10.8013L10.2965 13.2213C10.5285 13.376 10.8332 13.37 11.0598 13.2053C11.2852 13.0407 11.3845 12.752 11.3078 12.484L10.0885 8.21733L13.1125 5.496C13.3105 5.31733 13.3832 5.03867 13.2978 4.78667C13.2118 4.53467 12.9845 4.35733 12.7192 4.336L8.91849 4.03333L7.27383 0.392667C7.16649 0.153333 6.92849 0 6.66649 0C6.40449 0 6.16649 0.153333 6.05916 0.392667L4.41449 4.03333L0.613828 4.33533C0.352495 4.356 0.127828 4.52733 0.039828 4.77333C-0.0495053 5.01933 0.0144948 5.29467 0.201161 5.47733L3.01049 8.21533ZM4.91249 5.33133C5.15449 5.312 5.36783 5.16267 5.46716 4.94067L6.66649 2.28667L7.86583 4.94067C7.96516 5.16267 8.17849 5.312 8.42049 5.33133L11.0685 5.54133L8.88783 7.504C8.69849 7.67467 8.62316 7.93733 8.69249 8.18267L9.52783 11.106L7.03716 9.44533C6.81316 9.29533 6.52183 9.29533 6.29783 9.44533L3.69516 11.1807L4.39516 8.15C4.44716 7.92333 4.37783 7.68533 4.21116 7.52333L2.18583 5.54867L4.91249 5.33133Z" fill="#E7E7E7"/>
</svg>
