<svg width="46" height="47" viewBox="0 0 46 47" fill="none" xmlns="http://www.w3.org/2000/svg">
<path d="M22.9911 0.991699C10.4669 0.991699 0.315674 11.2467 0.315674 23.8984C0.315674 36.55 10.4687 46.805 22.9911 46.805C35.5152 46.805 45.6664 36.55 45.6664 23.8984C45.6664 11.2467 35.5152 0.991699 22.9911 0.991699ZM20.9787 5.50274C21.6689 5.6976 22.1697 6.56994 22.7488 7.13997C22.7507 7.13997 22.7543 7.13997 22.7543 7.13997C22.7543 7.13997 22.7579 7.13997 22.7598 7.13997C23.3389 6.56994 23.8397 5.6976 24.5299 5.50274C25.293 5.28784 26.2619 7.21464 25.7647 8.26909C25.018 9.85533 24.0455 11.3469 22.9965 13.1116C22.9291 13.2682 22.8618 13.4248 22.7944 13.5887C22.7798 13.5651 22.7671 13.5432 22.7525 13.5195C22.7379 13.5432 22.7252 13.5651 22.7106 13.5887C22.6432 13.4248 22.5758 13.2682 22.5084 13.1116C21.4595 11.3469 20.4869 9.85351 19.7403 8.26909C19.2467 7.21464 20.2156 5.28784 20.9787 5.50274ZM19.9096 11.0537C20.9768 12.731 22.004 14.3427 22.9601 15.8452C23.8689 14.2535 24.865 12.5124 26.0142 10.5018C27.8044 14.8034 23.4737 16.5864 22.9565 19.7479C20.0371 16.8759 18.6457 13.0679 19.9096 11.0537ZM18.0721 15.0948C19.7548 17.9741 21.4103 20.8042 22.8344 23.2373C24.1857 20.5292 25.7337 17.4223 27.2927 14.2972C28.7095 16.4352 28.4983 20.5401 26.821 22.263C25.5717 23.5469 24.2167 24.727 22.9892 25.8798C21.5596 24.6177 20.0608 23.3429 18.6184 22.008C16.7718 20.2925 16.5314 17.3859 18.0721 15.0948ZM19.427 25.1386C21.057 26.3096 21.882 27.9833 22.1843 29.9556C21.1444 27.6864 19.529 26.0965 16.9575 25.5192C18.4272 27.0982 19.8987 28.6771 21.3684 30.2561C16.8719 28.1982 13.7177 25.1313 13.7286 19.7479C14.7612 22.538 17.2999 23.6088 19.427 25.1386ZM10.6035 23.6798C11.1553 24.5139 11.5705 25.1167 11.9602 25.7359C13.4135 28.0506 15.537 29.269 18.1449 29.8882C20.8639 30.5347 22.35 32.2976 22.6013 35.1951C21.7344 32.9805 20.1118 32.385 18.3981 31.8787C16.7882 31.4034 15.2001 30.8498 13.4937 30.2943C14.4534 32.1301 16.0706 32.9186 17.8463 33.536C18.908 33.9057 20.0735 34.2062 20.9295 34.88C21.7854 35.552 22.3118 36.652 22.7561 37.7775C21.2919 35.5356 18.9936 35.0421 16.7098 34.4429C11.6197 33.1062 8.97898 28.566 10.6035 23.6798ZM22.2444 43.3503C20.7474 42.3887 19.3414 41.2377 17.7552 40.471C15.8776 39.5641 13.785 39.1142 11.8947 38.2292C8.21773 36.5063 6.05782 32.0263 7.09589 28.0761C7.13413 27.9341 7.29075 27.3677 7.54936 27.0654C8.45084 31.9498 11.8127 33.8948 16.056 34.8946C18.3034 35.4246 20.3467 36.4317 21.8 38.3384C22.228 38.8993 22.4957 39.5859 22.5139 40.4728C22.1697 40.1031 21.8838 39.6369 21.4704 39.3783C20.0007 38.4623 18.6731 37.0418 16.9776 36.7795C14.8614 36.4517 12.2207 35.3845 10.3521 33.9858C11.0788 35.2406 11.1261 35.4701 12.6614 36.9634C13.9107 38.1782 15.3349 38.0525 17.0122 38.5588C19.4671 39.3 21.7618 40.1851 22.7616 42.8841C22.8344 43.0789 23.093 43.2028 23.1094 43.7054C22.818 43.5907 22.503 43.516 22.2444 43.3503ZM25.5808 24.7816C27.5385 22.8567 29.9916 21.3414 30.6145 18.2892C31.4777 23.851 28.7041 27.528 24.3843 30.3817C25.6536 28.5132 26.923 26.6429 28.1923 24.7744C25.6263 25.7869 24.2112 27.69 23.4955 30.2033C23.4955 28.118 24.0838 26.255 25.5808 24.7816ZM27.9028 30.6859C25.4223 31.3998 25.6154 31.7203 24.1803 33.7527C24.1457 33.7345 24.1093 33.7181 24.071 33.7054C24.5391 32.7602 24.9962 31.8059 25.6645 31.0392C26.6571 29.9009 28.0721 29.1506 29.214 28.1308C30.9987 26.5372 32.7088 24.8599 34.3697 23.2937C35.2858 25.1404 34.6866 28.7791 32.4994 30.7387C30.8767 32.192 28.8789 33.2246 27.0268 34.4102C25.9923 35.0731 24.9379 35.6886 23.9162 36.3005C23.969 35.8562 24.0856 35.4337 24.3843 35.0567C25.4624 33.953 26.0816 32.7165 27.2398 32.2302C28.5147 31.6948 29.9898 30.2816 30.9496 29.2854C30.8239 29.1743 29.2941 30.2105 27.9028 30.6859ZM38.9336 31.8496C38.2852 34.636 36.3657 36.4062 33.9654 37.6391C32.5103 38.3858 30.9314 38.8957 29.387 39.4566C27.7625 40.0467 26.1144 40.5712 24.0492 41.2669C27.1196 37.9196 32.0568 38.4987 34.7157 34.9674C31.0443 36.5081 27.5221 37.9869 24.04 39.4493C24.3114 38.3202 25.2803 37.3768 26.5551 36.734C28.1777 35.9163 29.8569 35.2115 31.4868 34.4065C34.7959 32.7748 37.1069 30.3635 37.3747 25.9417C39.194 27.9213 39.4053 29.8245 38.9336 31.8496Z" fill="white"/>
</svg>
